﻿// © 2016 and later: Unicode, Inc. and others.
// License & terms of use: http://www.unicode.org/copyright.html#License
kk{
    Version{"2.1.41.97"}
    zoneStrings{
        "Etc:UTC"{
            ls{"Дүниежүзілік үйлестірілген уақыт"}
        }
        "Europe:Dublin"{
            ld{"Ирландия жазғы уақыты"}
        }
        "Europe:London"{
            ld{"Ұлыбритания жазғы уақыты"}
        }
        "meta:Afghanistan"{
            ls{"Ауғанстан уақыты"}
        }
        "meta:Africa_Central"{
            ls{"Орталық Африка уақыты"}
        }
        "meta:Africa_Eastern"{
            ls{"Шығыс Африка уақыты"}
        }
        "meta:Africa_Southern"{
            ls{"Оңтүстік Африка уақыты"}
        }
        "meta:Africa_Western"{
            ld{"Батыс Африка жазғы уақыты"}
            lg{"Батыс Африка уақыты"}
            ls{"Батыс Африка стандартты уақыты"}
        }
        "meta:Alaska"{
            ld{"Аляска жазғы уақыты"}
            lg{"Аляска уақыты"}
            ls{"Аляска стандартты уақыты"}
        }
        "meta:Amazon"{
            ld{"Амазонка жазғы уақыты"}
            lg{"Амазонка уақыты"}
            ls{"Амазонка стандартты уақыты"}
        }
        "meta:America_Central"{
            ld{"Солтүстік Америка жазғы орталық уақыты"}
            lg{"Солтүстік Америка орталық уақыты"}
            ls{"Солтүстік Америка стандартты орталық уақыты"}
        }
        "meta:America_Eastern"{
            ld{"Солтүстік Америка жазғы шығыс уақыты"}
            lg{"Солтүстік Америка шығыс уақыты"}
            ls{"Солтүстік Америка стандартты шығыс уақыты"}
        }
        "meta:America_Mountain"{
            ld{"Солтүстік Америка жазғы тау уақыты"}
            lg{"Солтүстік Америка тау уақыты"}
            ls{"Солтүстік Америка стандартты тау уақыты"}
        }
        "meta:America_Pacific"{
            ld{"Солтүстік Америка жазғы Тынық мұхиты уақыты"}
            lg{"Солтүстік Америка Тынық мұхиты уақыты"}
            ls{"Солтүстік Америка стандартты Тынық мұхиты уақыты"}
        }
        "meta:Apia"{
            ld{"Апиа жазғы уақыты"}
            lg{"Апиа уақыты"}
            ls{"Апиа стандартты уақыты"}
        }
        "meta:Arabian"{
            ld{"Сауд Арабиясы жазғы уақыты"}
            lg{"Сауд Арабиясы уақыты"}
            ls{"Сауд Арабиясы стандартты уақыты"}
        }
        "meta:Argentina"{
            ld{"Аргентина жазғы уақыты"}
            lg{"Аргентина уақыты"}
            ls{"Аргентина стандартты уақыты"}
        }
        "meta:Argentina_Western"{
            ld{"Батыс Аргентина жазғы уақыты"}
            lg{"Батыс Аргентина уақыты"}
            ls{"Батыс Аргентина стандартты уақыты"}
        }
        "meta:Armenia"{
            ld{"Армения жазғы уақыты"}
            lg{"Армения уақыты"}
            ls{"Армения стандартты уақыты"}
        }
        "meta:Atlantic"{
            ld{"Атлантика жазғы уақыты"}
            lg{"Атлантика уақыты"}
            ls{"Атлантика стандартты уақыты"}
        }
        "meta:Australia_Central"{
            ld{"Австралия жазғы орталық уақыты"}
            lg{"Австралия орталық уақыты"}
            ls{"Австралия стандартты орталық уақыты"}
        }
        "meta:Australia_CentralWestern"{
            ld{"Австралия жазғы орталық-батыс уақыты"}
            lg{"Австралия орталық-батыс уақыты"}
            ls{"Австралия стандартты орталық-батыс уақыты"}
        }
        "meta:Australia_Eastern"{
            ld{"Австралия жазғы шығыс уақыты"}
            lg{"Австралия шығыс уақыты"}
            ls{"Австралия стандартты шығыс уақыты"}
        }
        "meta:Australia_Western"{
            ld{"Австралия жазғы батыс уақыты"}
            lg{"Австралия батыс уақыты"}
            ls{"Австралия стандартты батыс уақыты"}
        }
        "meta:Azerbaijan"{
            ld{"Әзірбайжан жазғы уақыты"}
            lg{"Әзірбайжан уақыты"}
            ls{"Әзірбайжан стандартты уақыты"}
        }
        "meta:Azores"{
            ld{"Азор аралдары жазғы уақыты"}
            lg{"Азор аралдары уақыты"}
            ls{"Азор аралдары стандартты уақыты"}
        }
        "meta:Bangladesh"{
            ld{"Бангладеш жазғы уақыты"}
            lg{"Бангладеш уақыты"}
            ls{"Бангладеш стандартты уақыты"}
        }
        "meta:Bhutan"{
            ls{"Бутан уақыты"}
        }
        "meta:Bolivia"{
            ls{"Боливия уақыты"}
        }
        "meta:Brasilia"{
            ld{"Бразилия жазғы уақыты"}
            lg{"Бразилия уақыты"}
            ls{"Бразилия стандартты уақыты"}
        }
        "meta:Brunei"{
            ls{"Бруней-Даруссалам уақыты"}
        }
        "meta:Cape_Verde"{
            ld{"Кабо-Верде жазғы уақыты"}
            lg{"Кабо-Верде уақыты"}
            ls{"Кабо-Верде стандартты уақыты"}
        }
        "meta:Chamorro"{
            ls{"Чаморро стандартты уақыты"}
        }
        "meta:Chatham"{
            ld{"Чатем жазғы уақыты"}
            lg{"Чатем уақыты"}
            ls{"Чатем стандартты уақыты"}
        }
        "meta:Chile"{
            ld{"Чили жазғы уақыты"}
            lg{"Чили уақыты"}
            ls{"Чили стандартты уақыты"}
        }
        "meta:China"{
            ld{"Қытай жазғы уақыты"}
            lg{"Қытай уақыты"}
            ls{"Қытай стандартты уақыты"}
        }
        "meta:Choibalsan"{
            ld{"Чойбалсан жазғы уақыты"}
            lg{"Чойбалсан уақыты"}
            ls{"Чойбалсан стандартты уақыты"}
        }
        "meta:Christmas"{
            ls{"Рождество аралының уақыты"}
        }
        "meta:Cocos"{
            ls{"Кокос аралдарының уақыты"}
        }
        "meta:Colombia"{
            ld{"Колумбия жазғы уақыты"}
            lg{"Колумбия уақыты"}
            ls{"Колумбия стандартты уақыты"}
        }
        "meta:Cook"{
            ld{"Кук аралдарының жартылай жазғы уақыты"}
            lg{"Кук аралдарының уақыты"}
            ls{"Кук аралдарының стандартты уақыты"}
        }
        "meta:Cuba"{
            ld{"Куба жазғы уақыты"}
            lg{"Куба уақыты"}
            ls{"Куба стандартты уақыты"}
        }
        "meta:Davis"{
            ls{"Дейвис уақыты"}
        }
        "meta:DumontDUrville"{
            ls{"Дюмон-д’Юрвиль уақыты"}
        }
        "meta:East_Timor"{
            ls{"Шығыс Тимор уақыты"}
        }
        "meta:Easter"{
            ld{"Пасха аралы жазғы уақыты"}
            lg{"Пасха аралы уақыты"}
            ls{"Пасха аралы стандартты уақыты"}
        }
        "meta:Ecuador"{
            ls{"Эквадор уақыты"}
        }
        "meta:Europe_Central"{
            ld{"Орталық Еуропа жазғы уақыты"}
            lg{"Орталық Еуропа уақыты"}
            ls{"Орталық Еуропа стандартты уақыты"}
        }
        "meta:Europe_Eastern"{
            ld{"Шығыс Еуропа жазғы уақыты"}
            lg{"Шығыс Еуропа уақыты"}
            ls{"Шығыс Еуропа стандартты уақыты"}
            sd{"EEST"}
            sg{"EET"}
            ss{"EET"}
        }
        "meta:Europe_Further_Eastern"{
            ls{"Қиыр Шығыс Еуропа уақыты"}
        }
        "meta:Europe_Western"{
            ld{"Батыс Еуропа жазғы уақыты"}
            lg{"Батыс Еуропа уақыты"}
            ls{"Батыс Еуропа стандартты уақыты"}
        }
        "meta:Falkland"{
            ld{"Фолкленд аралдары жазғы уақыты"}
            lg{"Фолкленд аралдары уақыты"}
            ls{"Фолкленд аралдары стандартты уақыты"}
        }
        "meta:Fiji"{
            ld{"Фиджи жазғы уақыты"}
            lg{"Фиджи уақыты"}
            ls{"Фиджи стандартты уақыты"}
        }
        "meta:French_Guiana"{
            ls{"Француз Гвианасы уақыты"}
        }
        "meta:French_Southern"{
            ls{"Францияның оңтүстік аймағы және Антарктика уақыты"}
        }
        "meta:GMT"{
            ls{"Гринвич уақыты"}
        }
        "meta:Galapagos"{
            ls{"Галапагос уақыты"}
        }
        "meta:Gambier"{
            ls{"Гамбье уақыты"}
        }
        "meta:Georgia"{
            ld{"Грузия жазғы уақыты"}
            lg{"Грузия уақыты"}
            ls{"Грузия стандартты уақыты"}
        }
        "meta:Gilbert_Islands"{
            ls{"Гилберт аралдарының уақыты"}
        }
        "meta:Greenland_Eastern"{
            ld{"Шығыс Гренландия жазғы уақыты"}
            lg{"Шығыс Гренландия уақыты"}
            ls{"Шығыс Гренландия стандартты уақыты"}
        }
        "meta:Greenland_Western"{
            ld{"Батыс Гренландия жазғы уақыты"}
            lg{"Батыс Гренландия уақыты"}
            ls{"Батыс Гренландия стандартты уақыты"}
        }
        "meta:Gulf"{
            ls{"Парсы шығанағы уақыты"}
        }
        "meta:Guyana"{
            ls{"Гайана уақыты"}
        }
        "meta:Hawaii_Aleutian"{
            ld{"Гавай және Алеут аралдары жазғы уақыты"}
            lg{"Гавай және Алеут аралдары уақыты"}
            ls{"Гавай және Алеут аралдары стандартты уақыты"}
        }
        "meta:Hong_Kong"{
            ld{"Гонконг жазғы уақыты"}
            lg{"Гонконг уақыты"}
            ls{"Гонконг стандартты уақыты"}
        }
        "meta:Hovd"{
            ld{"Ховд жазғы уақыты"}
            lg{"Ховд уақыты"}
            ls{"Ховд стандартты уақыты"}
        }
        "meta:India"{
            ls{"Үндістан стандартты уақыты"}
        }
        "meta:Indian_Ocean"{
            ls{"Үнді мұхиты уақыты"}
        }
        "meta:Indochina"{
            ls{"Үндіқытай уақыты"}
        }
        "meta:Indonesia_Central"{
            ls{"Орталық Индонезия уақыты"}
        }
        "meta:Indonesia_Eastern"{
            ls{"Шығыс Индонезия уақыты"}
        }
        "meta:Indonesia_Western"{
            ls{"Батыс Индонезия уақыты"}
        }
        "meta:Iran"{
            ld{"Иран жазғы уақыты"}
            lg{"Иран уақыты"}
            ls{"Иран стандартты уақыты"}
        }
        "meta:Irkutsk"{
            ld{"Иркутск жазғы уақыты"}
            lg{"Иркутск уақыты"}
            ls{"Иркутск стандартты уақыты"}
        }
        "meta:Israel"{
            ld{"Израиль жазғы уақыты"}
            lg{"Израиль уақыты"}
            ls{"Израиль стандартты уақыты"}
        }
        "meta:Japan"{
            ld{"Жапония жазғы уақыты"}
            lg{"Жапония уақыты"}
            ls{"Жапония стандартты уақыты"}
        }
        "meta:Kazakhstan_Eastern"{
            ls{"Шығыс Қазақстан уақыты"}
        }
        "meta:Kazakhstan_Western"{
            ls{"Батыс Қазақстан уақыты"}
        }
        "meta:Korea"{
            ld{"Корея жазғы уақыты"}
            lg{"Корея уақыты"}
            ls{"Корея стандартты уақыты"}
        }
        "meta:Kosrae"{
            ls{"Кусаие уақыты"}
        }
        "meta:Krasnoyarsk"{
            ld{"Красноярск жазғы уақыты"}
            lg{"Красноярск уақыты"}
            ls{"Красноярск стандартты уақыты"}
        }
        "meta:Kyrgystan"{
            ls{"Қырғызстан уақыты"}
        }
        "meta:Line_Islands"{
            ls{"Лайн аралдары уақыты"}
        }
        "meta:Lord_Howe"{
            ld{"Лорд-Хау жазғы уақыты"}
            lg{"Лорд-Хау уақыты"}
            ls{"Лорд-Хау стандартты уақыты"}
        }
        "meta:Macquarie"{
            ls{"Маккуори аралы уақыты"}
        }
        "meta:Magadan"{
            ld{"Магадан жазғы уақыты"}
            lg{"Магадан уақыты"}
            ls{"Магадан стандартты уақыты"}
        }
        "meta:Malaysia"{
            ls{"Малайзия уақыты"}
        }
        "meta:Maldives"{
            ls{"Мальдив аралдары уақыты"}
        }
        "meta:Marquesas"{
            ls{"Маркиз аралдары уақыты"}
        }
        "meta:Marshall_Islands"{
            ls{"Маршалл аралдары уақыты"}
        }
        "meta:Mauritius"{
            ld{"Маврикий жазғы уақыты"}
            lg{"Маврикий уақыты"}
            ls{"Маврикий стандартты уақыты"}
        }
        "meta:Mawson"{
            ls{"Моусон уақыты"}
        }
        "meta:Mexico_Northwest"{
            ld{"Солтүстік-батыс Мексика жазғы уақыты"}
            lg{"Солтүстік-батыс Мексика уақыты"}
            ls{"Солтүстік-батыс Мексика стандартты уақыты"}
        }
        "meta:Mexico_Pacific"{
            ld{"Мексика жазғы Тынық мұхит уақыты"}
            lg{"Мексика Тынық мұхит уақыты"}
            ls{"Мексика стандартты Тынық мұхит уақыты"}
        }
        "meta:Mongolia"{
            ld{"Ұланбатыр жазғы уақыты"}
            lg{"Ұланбатыр уақыты"}
            ls{"Ұланбатыр стандартты уақыты"}
        }
        "meta:Moscow"{
            ld{"Мәскеу жазғы уақыты"}
            lg{"Мәскеу уақыты"}
            ls{"Мәскеу стандартты уақыты"}
        }
        "meta:Myanmar"{
            ls{"Мьянма уақыты"}
        }
        "meta:Nauru"{
            ls{"Науру уақыты"}
        }
        "meta:Nepal"{
            ls{"Непал уақыты"}
        }
        "meta:New_Caledonia"{
            ld{"Жаңа Каледония жазғы уақыты"}
            lg{"Жаңа Каледония уақыты"}
            ls{"Жаңа Каледония стандартты уақыты"}
        }
        "meta:New_Zealand"{
            ld{"Жаңа Зеландия жазғы уақыты"}
            lg{"Жаңа Зеландия уақыты"}
            ls{"Жаңа Зеландия стандартты уақыты"}
        }
        "meta:Newfoundland"{
            ld{"Ньюфаундленд жазғы уақыты"}
            lg{"Ньюфаундленд уақыты"}
            ls{"Ньюфаундленд стандартты уақыты"}
        }
        "meta:Niue"{
            ls{"Ниуэ уақыты"}
        }
        "meta:Norfolk"{
            ls{"Норфолк аралы уақыты"}
        }
        "meta:Noronha"{
            ld{"Фернанду-ди-Норонья жазғы уақыты"}
            lg{"Фернанду-ди-Норонья уақыты"}
            ls{"Фернанду-ди-Норонья стандартты уақыты"}
        }
        "meta:Novosibirsk"{
            ld{"Новосібір жазғы уақыты"}
            lg{"Новосібір уақыты"}
            ls{"Новосібір стандартты уақыты"}
        }
        "meta:Omsk"{
            ld{"Омбы жазғы уақыты"}
            lg{"Омбы уақыты"}
            ls{"Омбы стандартты уақыты"}
        }
        "meta:Pakistan"{
            ld{"Пәкістан жазғы уақыты"}
            lg{"Пәкістан уақыты"}
            ls{"Пәкістан стандартты уақыты"}
        }
        "meta:Palau"{
            ls{"Палау уақыты"}
        }
        "meta:Papua_New_Guinea"{
            ls{"Папуа – Жаңа Гвинея уақыты"}
        }
        "meta:Paraguay"{
            ld{"Парагвай жазғы уақыты"}
            lg{"Парагвай уақыты"}
            ls{"Парагвай стандартты уақыты"}
        }
        "meta:Peru"{
            ld{"Перу жазғы уақыты"}
            lg{"Перу уақыты"}
            ls{"Перу стандартты уақыты"}
        }
        "meta:Philippines"{
            ld{"Филиппин аралдары жазғы уақыты"}
            lg{"Филиппин аралдары уақыты"}
            ls{"Филиппин аралдары стандартты уақыты"}
        }
        "meta:Phoenix_Islands"{
            ls{"Феникс аралдары уақыты"}
        }
        "meta:Pierre_Miquelon"{
            ld{"Сен-Пьер және Микелон жазғы уақыты"}
            lg{"Сен-Пьер және Микелон уақыты"}
            ls{"Сен-Пьер және Микелон стандартты уақыты"}
        }
        "meta:Pitcairn"{
            ls{"Питкэрн уақыты"}
        }
        "meta:Ponape"{
            ls{"Понпеи уақыты"}
        }
        "meta:Pyongyang"{
            ls{"Пхеньян уақыты"}
        }
        "meta:Reunion"{
            ls{"Реюньон уақыты"}
        }
        "meta:Rothera"{
            ls{"Ротера уақыты"}
        }
        "meta:Sakhalin"{
            ld{"Сахалин жазғы уақыты"}
            lg{"Сахалин уақыты"}
            ls{"Сахалин стандартты уақыты"}
        }
        "meta:Samoa"{
            ld{"Самоа жазғы уақыты"}
            lg{"Самоа уақыты"}
            ls{"Самоа стандартты уақыты"}
        }
        "meta:Seychelles"{
            ls{"Сейшель аралдары уақыты"}
        }
        "meta:Singapore"{
            ls{"Сингапур стандартты уақыты"}
        }
        "meta:Solomon"{
            ls{"Соломон аралдары уақыты"}
        }
        "meta:South_Georgia"{
            ls{"Оңтүстік Георгия уақыты"}
        }
        "meta:Suriname"{
            ls{"Суринам уақыты"}
        }
        "meta:Syowa"{
            ls{"Сёва уақыты"}
        }
        "meta:Tahiti"{
            ls{"Таити уақыты"}
        }
        "meta:Taipei"{
            ld{"Тайбэй жазғы уақыты"}
            lg{"Тайбэй уақыты"}
            ls{"Тайбэй стандартты уақыты"}
        }
        "meta:Tajikistan"{
            ls{"Тәжікстан уақыты"}
        }
        "meta:Tokelau"{
            ls{"Токелау уақыты"}
        }
        "meta:Tonga"{
            ld{"Тонга жазғы уақыты"}
            lg{"Тонга уақыты"}
            ls{"Тонга стандартты уақыты"}
        }
        "meta:Truk"{
            ls{"Трук уақыты"}
        }
        "meta:Turkmenistan"{
            ld{"Түрікменстан жазғы уақыты"}
            lg{"Түрікменстан уақыты"}
            ls{"Түрікменстан стандартты уақыты"}
        }
        "meta:Tuvalu"{
            ls{"Тувалу уақыты"}
        }
        "meta:Uruguay"{
            ld{"Уругвай жазғы уақыты"}
            lg{"Уругвай уақыты"}
            ls{"Уругвай стандартты уақыты"}
        }
        "meta:Uzbekistan"{
            ld{"Өзбекстан жазғы уақыты"}
            lg{"Өзбекстан уақыты"}
            ls{"Өзбекстан стандартты уақыты"}
        }
        "meta:Vanuatu"{
            ld{"Вануату жазғы уақыты"}
            lg{"Вануату уақыты"}
            ls{"Вануату стандартты уақыты"}
        }
        "meta:Venezuela"{
            ls{"Венесуэла уақыты"}
        }
        "meta:Vladivostok"{
            ld{"Владивосток жазғы уақыты"}
            lg{"Владивосток уақыты"}
            ls{"Владивосток стандартты уақыты"}
        }
        "meta:Volgograd"{
            ld{"Волгоград жазғы уақыты"}
            lg{"Волгоград уақыты"}
            ls{"Волгоград стандартты уақыты"}
        }
        "meta:Vostok"{
            ls{"Восток уақыты"}
        }
        "meta:Wake"{
            ls{"Уэйк аралы уақыты"}
        }
        "meta:Wallis"{
            ls{"Уоллис және Футуна уақыты"}
        }
        "meta:Yakutsk"{
            ld{"Якутск жазғы уақыты"}
            lg{"Якутск уақыты"}
            ls{"Якутск стандартты уақыты"}
        }
        "meta:Yekaterinburg"{
            ld{"Екатеринбург жазғы уақыты"}
            lg{"Екатеринбург уақыты"}
            ls{"Екатеринбург стандартты уақыты"}
        }
        fallbackFormat{"{1} ({0})"}
        gmtFormat{"GMT{0}"}
        gmtZeroFormat{"GMT"}
        hourFormat{"+HH:mm;-HH:mm"}
        regionFormat{"{0} уақыты"}
        regionFormatDaylight{"{0} жазғы уақыты"}
        regionFormatStandard{"{0} стандартты уақыты"}
    }
}
