﻿// © 2016 and later: Unicode, Inc. and others.
// License & terms of use: http://www.unicode.org/copyright.html#License
or{
    Version{"2.1.41.97"}
    zoneStrings{
        "Etc:UTC"{
            ls{"ସମନ୍ୱିତ ସାର୍ବଜନୀନ ସମୟ"}
        }
        "Europe:Dublin"{
            ld{"ଆଇରିଶ୍‌ ମାନାଙ୍କ ସମୟ"}
        }
        "Europe:London"{
            ld{"ବ୍ରିଟିଶ୍‌ ଗ୍ରୀଷ୍ମକାଳୀନ ସମୟ"}
        }
        "meta:Afghanistan"{
            ls{"ଆଫଗାନିସ୍ତାନ ସମୟ"}
        }
        "meta:Africa_Central"{
            ls{"ମଧ୍ୟ ଆଫ୍ରିକା ସମୟ"}
        }
        "meta:Africa_Eastern"{
            ls{"ପୂର୍ବ ଆଫ୍ରିକା ସମୟ"}
        }
        "meta:Africa_Southern"{
            ls{"ଦକ୍ଷିଣ ଆଫ୍ରିକା ମାନାଙ୍କ ସମୟ"}
        }
        "meta:Africa_Western"{
            ld{"ପଶ୍ଚିମ ଆଫ୍ରିକା ଖରାଦିନ ସମୟ"}
            lg{"ପଶ୍ଚିମ ଆଫ୍ରିକା ସମୟ"}
            ls{"ପଶ୍ଚିମ ଆଫ୍ରିକା ମାନାଙ୍କ ସମୟ"}
        }
        "meta:Alaska"{
            ld{"ଆଲାସ୍କା ଦିବାଲୋକ ସମୟ"}
            lg{"ଆଲାସ୍କା ସମୟ"}
            ls{"ଆଲାସ୍କା ମାନାଙ୍କ ସମୟ"}
        }
        "meta:Amazon"{
            ld{"ଆମାଜନ୍ ଗ୍ରୀଷ୍ମକାଳୀନ ସମୟ"}
            lg{"ଆମାଜନ୍ ସମୟ"}
            ls{"ଆମାଜନ୍ ମାନାଙ୍କ ସମୟ"}
        }
        "meta:America_Central"{
            ld{"କେନ୍ଦ୍ରୀୟ ଦିବାଲୋକ ସମୟ"}
            lg{"କେନ୍ଦ୍ରୀୟ ସମୟ"}
            ls{"କେନ୍ଦ୍ରୀୟ ମାନାଙ୍କ ସମୟ"}
        }
        "meta:America_Eastern"{
            ld{"ପୂର୍ବାଞ୍ଚଳ ଦିବାଲୋକ ସମୟ"}
            lg{"ପୂର୍ବାଞ୍ଚଳ ସମୟ"}
            ls{"ପୂର୍ବାଞ୍ଚଳ ମାନାଙ୍କ ସମୟ"}
        }
        "meta:America_Mountain"{
            ld{"ପାର୍ବତ୍ୟ ଦିବାଲୋକ ସମୟ"}
            lg{"ପାର୍ବତ୍ୟ ସମୟ"}
            ls{"ପାର୍ବତ୍ୟ ମାନାଙ୍କ ସମୟ"}
        }
        "meta:America_Pacific"{
            ld{"ପାସିଫିକ୍ ଦିବାଲୋକ ସମୟ"}
            lg{"ପାସିଫିକ୍ ସମୟ"}
            ls{"ପାସିଫିକ୍ ମାନାଙ୍କ ସମୟ"}
        }
        "meta:Apia"{
            ld{"ଆପିଆ ଦିବାଲୋକ ସମୟ"}
            lg{"ଆପିଆ ସମୟ"}
            ls{"ଆପିଆ ମାନାଙ୍କ ସମୟ"}
        }
        "meta:Arabian"{
            ld{"ଆରବୀୟ ଦିବାଲୋକ ସମୟ"}
            lg{"ଆରବୀୟ ସମୟ"}
            ls{"ଆରବୀୟ ମାନାଙ୍କ ସମୟ"}
        }
        "meta:Argentina"{
            ld{"ଆର୍ଜେଣ୍ଟିନା ଗ୍ରୀଷ୍ମକାଳ ସମୟ"}
            lg{"ଆର୍ଜେଣ୍ଟିନା ସମୟ"}
            ls{"ଆର୍ଜେଣ୍ଟିନା ମାନାଙ୍କ ସମୟ"}
        }
        "meta:Argentina_Western"{
            ld{"ପଶ୍ଚିମ ଆର୍ଜେଣ୍ଟିନା ଗ୍ରୀଷ୍ମକାଳ ସମୟ"}
            lg{"ପଶ୍ଚିମ ଆର୍ଜେଣ୍ଟିନା ସମୟ"}
            ls{"ପଶ୍ଚିମ ଆର୍ଜେଣ୍ଟିନା ମାନାଙ୍କ ସମୟ"}
        }
        "meta:Armenia"{
            ld{"ଆର୍ମେନିଆ ଗ୍ରୀଷ୍ମକାଳ ସମୟ"}
            lg{"ଆର୍ମେନିଆ ସମୟ"}
            ls{"ଆର୍ମେନିଆ ମାନାଙ୍କ ସମୟ"}
        }
        "meta:Atlantic"{
            ld{"ଆଟଲାଣ୍ଟିକ୍ ଦିବାଲୋକ ସମୟ"}
            lg{"ଆଟଲାଣ୍ଟିକ୍ ସମୟ"}
            ls{"ଆଟଲାଣ୍ଟିକ୍ ମାନାଙ୍କ ସମୟ"}
        }
        "meta:Australia_Central"{
            ld{"ଅଷ୍ଟ୍ରେଲିୟ ମଧ୍ୟ ଦିବାଲୋକ ସମୟ"}
            lg{"ମଧ୍ୟ ଅଷ୍ଟ୍ରେଲିଆ ସମୟ"}
            ls{"ଅଷ୍ଟ୍ରେଲିୟ ମଧ୍ୟ ମାନାଙ୍କ ସମୟ"}
        }
        "meta:Australia_CentralWestern"{
            ld{"ଅଷ୍ଟ୍ରେଲିୟ ମଧ୍ୟ ପଶ୍ଚିମ ଦିବାଲୋକ ସମୟ"}
            lg{"ଅଷ୍ଟ୍ରେଲିୟ ମଧ୍ୟ ପଶ୍ଚିମ ସମୟ"}
            ls{"ଅଷ୍ଟ୍ରେଲିୟ ମଧ୍ୟ ପଶ୍ଚିମ ମାନାଙ୍କ ସମୟ"}
        }
        "meta:Australia_Eastern"{
            ld{"ଅଷ୍ଟ୍ରେଲିୟ ପୂର୍ବ ଦିବାଲୋକ ସମୟ"}
            lg{"ପୂର୍ବ ଅଷ୍ଟ୍ରେଲିଆ ସମୟ"}
            ls{"ଅଷ୍ଟ୍ରେଲିୟ ପୂର୍ବ ମାନାଙ୍କ ସମୟ"}
        }
        "meta:Australia_Western"{
            ld{"ଅଷ୍ଟ୍ରେଲିୟ ପଶ୍ଚିମ ଦିବାଲୋକ ସମୟ"}
            lg{"ପଶ୍ଚିମ ଅଷ୍ଟ୍ରେଲିଆ ସମୟ"}
            ls{"ଅଷ୍ଟ୍ରେଲିୟ ପଶ୍ଚିମ ମାନାଙ୍କ ସମୟ"}
        }
        "meta:Azerbaijan"{
            ld{"ଆଜେରବାଇଜାନ ଖରାଦିନ ସମୟ"}
            lg{"ଆଜେରବାଇଜାନ ସମୟ"}
            ls{"ଆଜେରବାଇଜାନ ମାନଙ୍କ ସମୟ"}
        }
        "meta:Azores"{
            ld{"ଆଜୋରେସ୍ ଗ୍ରୀଷ୍ମକାଳ ସମୟ"}
            lg{"ଆଜୋରେସ୍ ସମୟ"}
            ls{"ଆଜୋରେସ୍ ମାନାଙ୍କ ସମୟ"}
        }
        "meta:Bangladesh"{
            ld{"ବାଂଲାଦେଶ ଗ୍ରୀଷ୍ମକାଳ ସମୟ"}
            lg{"ବାଂଲାଦେଶ ସମୟ"}
            ls{"ବାଂଲାଦେଶ ମାନାଙ୍କ ସମୟ"}
        }
        "meta:Bhutan"{
            ls{"ଭୁଟାନ ସମୟ"}
        }
        "meta:Bolivia"{
            ls{"ବଲିଭିଆ ସମୟ"}
        }
        "meta:Brasilia"{
            ld{"ବ୍ରାସିଲିଆ ଗ୍ରୀଷ୍ମକାଳ ସମୟ"}
            lg{"ବ୍ରାସିଲିଆ ସମୟ"}
            ls{"ବ୍ରାସିଲିଆ ମାନାଙ୍କ ସମୟ"}
        }
        "meta:Brunei"{
            ls{"ବ୍ରୁନେଇ ଡାରୁସାଲାମ ସମୟ"}
        }
        "meta:Cape_Verde"{
            ld{"କେପ୍‌ ଭର୍ଦେ ଖରାଦିନ ସମୟ"}
            lg{"କେପ୍‌ ଭର୍ଦେ ସମୟ"}
            ls{"କେପ୍‌ ଭର୍ଦେ ମାନାଙ୍କ ସମୟ"}
        }
        "meta:Chamorro"{
            ls{"ଚାମୋରୋ ମାନାଙ୍କ ସମୟ"}
        }
        "meta:Chatham"{
            ld{"ଚାଥାମ୍‌ ଦିବାଲୋକ ସମୟ"}
            lg{"ଚାଥାମ୍‌ ସମୟ"}
            ls{"ଚାଥାମ୍‌ ମାନାଙ୍କ ସମୟ"}
        }
        "meta:Chile"{
            ld{"ଚିଲି ଗ୍ରୀଷ୍ମକାଳ ସମୟ"}
            lg{"ଚିଲି ସମୟ"}
            ls{"ଚିଲି ମାନାଙ୍କ ସମୟ"}
        }
        "meta:China"{
            ld{"ଚୀନ ଦିବାଲୋକ ସମୟ"}
            lg{"ଚୀନ ସମୟ"}
            ls{"ଚୀନ ମାନାଙ୍କ ସମୟ"}
        }
        "meta:Choibalsan"{
            ld{"ଚୋଇବାଲସାନ ଗ୍ରୀଷ୍ମକାଳ ସମୟ"}
            lg{"ଚୋଇବାଲସାନ ସମୟ"}
            ls{"ଚୋଇବାଲସାନ ମାନାଙ୍କ ସମୟ"}
        }
        "meta:Christmas"{
            ls{"ଖ୍ରୀଷ୍ଟମାସ ଦ୍ୱୀପ ସମୟ"}
        }
        "meta:Cocos"{
            ls{"କୋକୋସ୍‌ ଦ୍ୱୀପପୁଞ୍ଜ ସମୟ"}
        }
        "meta:Colombia"{
            ld{"କଲମ୍ବିଆ ଗ୍ରୀଷ୍ମକାଳ ସମୟ"}
            lg{"କଲମ୍ବିଆ ସମୟ"}
            ls{"କଲମ୍ବିଆ ମାନାଙ୍କ ସମୟ"}
        }
        "meta:Cook"{
            ld{"କୁକ୍‌ ଦ୍ୱୀପପୁଞ୍ଜ ଅର୍ଦ୍ଧ ଗୀଷ୍ମକାଳୀନ ସମୟ"}
            lg{"କୁକ୍‌ ଦ୍ୱୀପପୁଞ୍ଜ ସମୟ"}
            ls{"କୁକ୍‌ ଦ୍ୱୀପପୁଞ୍ଜ ମାନାଙ୍କ ସମୟ"}
        }
        "meta:Cuba"{
            ld{"କ୍ୟୁବା ଦିବାଲୋକ ସମୟ"}
            lg{"କ୍ୟୁବା ସମୟ"}
            ls{"କ୍ୟୁବା ମାନାଙ୍କ ସମୟ"}
        }
        "meta:Davis"{
            ls{"ଡେଭିସ୍‌ ସମୟ"}
        }
        "meta:DumontDUrville"{
            ls{"ଡୁମୋଣ୍ଟ-ଡି‘ଉରଭିଲ୍ଲେ ସମୟ"}
        }
        "meta:East_Timor"{
            ls{"ପୂର୍ବ ତିମୋର୍‌ ସମୟ"}
        }
        "meta:Easter"{
            ld{"ଇଷ୍ଟର୍‌ ଆଇଲ୍ୟାଣ୍ଡ ଗ୍ରୀଷ୍ମକାଳ ସମୟ"}
            lg{"ଇଷ୍ଟର୍‌ ଆଇଲ୍ୟାଣ୍ଡ ସମୟ"}
            ls{"ଇଷ୍ଟର୍‌ ଆଇଲ୍ୟାଣ୍ଡ ମାନାଙ୍କ ସମୟ"}
        }
        "meta:Ecuador"{
            ls{"ଇକ୍ୱେଡର ସମୟ"}
        }
        "meta:Europe_Central"{
            ld{"କେନ୍ଦ୍ରୀୟ ୟୁରୋପୀୟ ଗ୍ରୀଷ୍ମକାଳ ସମୟ"}
            lg{"କେନ୍ଦ୍ରୀୟ ୟୁରୋପୀୟ ସମୟ"}
            ls{"କେନ୍ଦ୍ରୀୟ ୟୁରୋପୀୟ ମାନାଙ୍କ ସମୟ"}
        }
        "meta:Europe_Eastern"{
            ld{"ପୂର୍ବାଞ୍ଚଳ ୟୁରୋପୀୟ ଗ୍ରୀଷ୍ମକାଳ ସମୟ"}
            lg{"ପୂର୍ବାଞ୍ଚଳ ୟୁରୋପୀୟ ସମୟ"}
            ls{"ପୂର୍ବାଞ୍ଚଳ ୟୁରୋପୀୟ ମାନାଙ୍କ ସମୟ"}
        }
        "meta:Europe_Further_Eastern"{
            ls{"ପରବର୍ତ୍ତୀ-ପୂର୍ବାଞ୍ଚଳ ୟୁରୋପୀୟ ସମୟ"}
        }
        "meta:Europe_Western"{
            ld{"ପଶ୍ଚିମାଞ୍ଚଳ ୟୁରୋପୀୟ ଗ୍ରୀଷ୍ମକାଳ ସମୟ"}
            lg{"ପଶ୍ଚିମାଞ୍ଚଳ ୟୁରୋପୀୟ ସମୟ"}
            ls{"ପଶ୍ଚିମାଞ୍ଚଳ ୟୁରୋପୀୟ ମାନାଙ୍କ ସମୟ"}
        }
        "meta:Falkland"{
            ld{"ଫକଲ୍ୟାଣ୍ଡ ଦ୍ୱୀପପୁଞ୍ଜ ଗ୍ରୀଷ୍ମକାଳ ସମୟ"}
            lg{"ଫକଲ୍ୟାଣ୍ଡ ଦ୍ୱୀପପୁଞ୍ଜ ସମୟ"}
            ls{"ଫକଲ୍ୟାଣ୍ଡ ଦ୍ୱୀପପୁଞ୍ଜ ମାନାଙ୍କ ସମୟ"}
        }
        "meta:Fiji"{
            ld{"ଫିଜି ଗ୍ରୀଷ୍ମକାଳ ସମୟ"}
            lg{"ଫିଜି ସମୟ"}
            ls{"ଫିଜି ମାନାଙ୍କ ସମୟ"}
        }
        "meta:French_Guiana"{
            ls{"ଫ୍ରେଞ୍ଚ ଗୁଆନା ସମୟ"}
        }
        "meta:French_Southern"{
            ls{"ଫ୍ରେଞ୍ଚ ଦକ୍ଷିଣ ଏବଂ ଆଣ୍ଟାର୍କାଟିକ୍‌ ସମୟ"}
        }
        "meta:GMT"{
            ls{"ଗ୍ରୀନୱିଚ୍ ମିନ୍ ସମୟ"}
        }
        "meta:Galapagos"{
            ls{"ଗାଲାପାଗୋସ୍ ସମୟ"}
        }
        "meta:Gambier"{
            ls{"ଗାମ୍ବିୟର୍ ସମୟ"}
        }
        "meta:Georgia"{
            ld{"ଜର୍ଜିଆ ଖରାଦିନ ସମୟ"}
            lg{"ଜର୍ଜିଆ ସମୟ"}
            ls{"ଜର୍ଜିଆ ମାନାଙ୍କ ସମୟ"}
        }
        "meta:Gilbert_Islands"{
            ls{"ଗିଲବର୍ଟ୍‌ ଦ୍ୱୀପପୁଞ୍ଜ ସମୟ"}
        }
        "meta:Greenland_Eastern"{
            ld{"ପୂର୍ବ ଗ୍ରୀନଲ୍ୟାଣ୍ଡ୍ ଗ୍ରୀଷ୍ମକାଳ ସମୟ"}
            lg{"ପୂର୍ବ ଗ୍ରୀନଲ୍ୟାଣ୍ଡ୍ ସମୟ"}
            ls{"ପୂର୍ବ ଗ୍ରୀନଲ୍ୟାଣ୍ଡ୍ ମାନାଙ୍କ ସମୟ"}
        }
        "meta:Greenland_Western"{
            ld{"ପଶ୍ଚିମ ଗ୍ରୀନଲ୍ୟାଣ୍ଡ୍ ଗ୍ରୀଷ୍ମ ସମୟ"}
            lg{"ପଶ୍ଚିମ ଗ୍ରୀନଲ୍ୟାଣ୍ଡ୍ ସମୟ"}
            ls{"ପଶ୍ଚିମ ଗ୍ରୀନଲ୍ୟାଣ୍ଡ୍ ମାନାଙ୍କ ସମୟ"}
        }
        "meta:Gulf"{
            ls{"ଗଲ୍ଫ ମାନାଙ୍କ ସମୟ"}
        }
        "meta:Guyana"{
            ls{"ଗୁଏନା ସମୟ"}
        }
        "meta:Hawaii_Aleutian"{
            ld{"ହୱାଇ-ଆଲେଉଟିୟ ଦିବାଲୋକ ସମୟ"}
            lg{"ହୱାଇ-ଆଲେଉଟିୟ ସମୟ"}
            ls{"ହୱାଇ-ଆଲେଉଟିୟ ମାନାଙ୍କ ସମୟ"}
        }
        "meta:Hong_Kong"{
            ld{"ହଂ କଂ ଗ୍ରୀଷ୍ମକାଳ ସମୟ"}
            lg{"ହଂ କଂ ସମୟ"}
            ls{"ହଂ କଂ ମାନାଙ୍କ ସମୟ"}
        }
        "meta:Hovd"{
            ld{"ହୋଭଡ୍‌ ଗ୍ରୀଷ୍ମକାଳ ସମୟ"}
            lg{"ହୋଭଡ୍‌ ସମୟ"}
            ls{"ହୋଭଡ୍‌ ମାନାଙ୍କ ସମୟ"}
        }
        "meta:India"{
            ls{"ଭାରତ ମାନାଙ୍କ ସମୟ"}
            ss{"IST"}
        }
        "meta:Indian_Ocean"{
            ls{"ଭାରତ ମାହାସାଗର ସମୟ"}
        }
        "meta:Indochina"{
            ls{"ଇଣ୍ଡୋଚାଇନା ସମୟ"}
        }
        "meta:Indonesia_Central"{
            ls{"ମଧ୍ୟ ଇଣ୍ଡୋନେସିଆ ସମୟ"}
        }
        "meta:Indonesia_Eastern"{
            ls{"ପୂର୍ବ ଇଣ୍ଡୋନେସିଆ ସମୟ"}
        }
        "meta:Indonesia_Western"{
            ls{"ପଶ୍ଚିମ ଇଣ୍ଡୋନେସିଆ ସମୟ"}
        }
        "meta:Iran"{
            ld{"ଇରାନ ଦିବାଲୋକ ସମୟ"}
            lg{"ଇରାନ ସମୟ"}
            ls{"ଇରାନ ମାନାଙ୍କ ସମୟ"}
        }
        "meta:Irkutsk"{
            ld{"ଇର୍କୁଟସ୍କ୍ ଗ୍ରୀଷ୍ମକାଳୀନ ସମୟ"}
            lg{"ଇଅରକୁଟସ୍କ ସମୟ"}
            ls{"ଇଅରକୁଟସ୍କ ମାନାଙ୍କ ସମୟ"}
        }
        "meta:Israel"{
            ld{"ଇସ୍ରାଏଲ ଦିବାଲୋକ ସମୟ"}
            lg{"ଇସ୍ରାଏଲ ସମୟ"}
            ls{"ଇସ୍ରାଏଲ ମାନାଙ୍କ ସମୟ"}
        }
        "meta:Japan"{
            ld{"ଜାପାନ ଦିବାଲୋକ ସମୟ"}
            lg{"ଜାପାନ ସମୟ"}
            ls{"ଜାପାନ ମାନାଙ୍କ ସମୟ"}
        }
        "meta:Kazakhstan_Eastern"{
            ls{"ପୂର୍ବ କାଜାକସ୍ତାନ୍ ସମୟ"}
        }
        "meta:Kazakhstan_Western"{
            ls{"ପଶ୍ଚିମ କାଜାକସ୍ତାନ ସମୟ"}
        }
        "meta:Korea"{
            ld{"କୋରିୟ ଦିବାଲୋକ ସମୟ"}
            lg{"କୋରିୟ ସମୟ"}
            ls{"କୋରିୟ ମାନାଙ୍କ ସମୟ"}
        }
        "meta:Kosrae"{
            ls{"କୋସରେଇ ସମୟ"}
        }
        "meta:Krasnoyarsk"{
            ld{"କ୍ରାସନୋୟାରସ୍କ ଗ୍ରୀଷ୍ମକାଳ ସମୟ"}
            lg{"କ୍ରାସନୋୟାରସ୍କ ସମୟ"}
            ls{"କ୍ରାସନୋୟାରସ୍କ ମାନାଙ୍କ ସମୟ"}
        }
        "meta:Kyrgystan"{
            ls{"କିର୍ଗିସ୍ତାନ ସମୟ"}
        }
        "meta:Line_Islands"{
            ls{"ଲାଇନ୍‌ ଦ୍ୱୀପପୁଞ୍ଜ ସମୟ"}
        }
        "meta:Lord_Howe"{
            ld{"ଲର୍ଡ ହୋୱେ ଦିବାଲୋକ ସମୟ"}
            lg{"ଲର୍ଡ ହୋୱେ ସମୟ"}
            ls{"ଲର୍ଡ ହୋୱେ ମାନାଙ୍କ ସମୟ"}
        }
        "meta:Macquarie"{
            ls{"ମାକ୍ୱେରୀ ଦ୍ୱୀପ ସମୟ"}
        }
        "meta:Magadan"{
            ld{"ମାଗାଡାନ୍ ଗ୍ରୀଷ୍ମକାଳ ସମୟ"}
            lg{"ମାଗାଡାନ୍ ସମୟ"}
            ls{"ମାଗାଡାନ୍ ମାନାଙ୍କ ସମୟ"}
        }
        "meta:Malaysia"{
            ls{"ମାଲେସିଆ ସମୟ"}
        }
        "meta:Maldives"{
            ls{"ମାଳଦ୍ୱୀପ ସମୟ"}
        }
        "meta:Marquesas"{
            ls{"ମାର୍କ୍ୱେସାସ୍‌ ସମୟ"}
        }
        "meta:Marshall_Islands"{
            ls{"ମାର୍ଶାଲ୍‌ ଦ୍ୱୀପପୁଞ୍ଜ ସମୟ"}
        }
        "meta:Mauritius"{
            ld{"ମୌରିସସ୍‌ ଖରାଦିନ ସମୟ"}
            lg{"ମୌରିସସ୍‌ ସମୟ"}
            ls{"ମୌରିସସ୍‌ ମାନାଙ୍କ ସମୟ"}
        }
        "meta:Mawson"{
            ls{"ମାୱସନ୍‌ ସମୟ"}
        }
        "meta:Mexico_Northwest"{
            ld{"ଉତ୍ତରପଶ୍ଚିମ ମେକ୍ସିକୋ ଦିବାଲୋକ ସମୟ"}
            lg{"ଉତ୍ତରପଶ୍ଚିମ ମେକ୍ସିକୋ ସମୟ"}
            ls{"ଉତ୍ତରପଶ୍ଚିମ ମେକ୍ସିକୋ ମାନାଙ୍କ ସମୟ"}
        }
        "meta:Mexico_Pacific"{
            ld{"ମେକ୍ସିକାନ୍ ପାସିଫିକ୍ ଦିବାଲୋକ ସମୟ"}
            lg{"ମେକ୍ସିକାନ୍ ପାସିଫିକ୍ ସମୟ"}
            ls{"ମେକ୍ସିକାନ୍ ପାସିଫିକ୍ ମାନାଙ୍କ ସମୟ"}
        }
        "meta:Mongolia"{
            ld{"ଉଲାନ୍‌ ବାଟର୍‌ ଗ୍ରୀଷ୍ମକାଳ ସମୟ"}
            lg{"ଉଲାନ୍‌ବାଟର୍‌ ସମୟ"}
            ls{"ଉଲାନ୍‌ବାଟର୍‌ ମାନାଙ୍କ ସମୟ"}
        }
        "meta:Moscow"{
            ld{"ମସ୍କୋ ଗ୍ରୀଷ୍ମକାଳ ସମୟ"}
            lg{"ମସ୍କୋ ସମୟ"}
            ls{"ମସ୍କୋ ମାନାଙ୍କ ସମୟ"}
        }
        "meta:Myanmar"{
            ls{"ମିଆଁମାର୍‌ ସମୟ"}
        }
        "meta:Nauru"{
            ls{"ନାଉରୁ ସମୟ"}
        }
        "meta:Nepal"{
            ls{"ନେପାଳ ସମୟ"}
        }
        "meta:New_Caledonia"{
            ld{"ନ୍ୟୁ କାଲେଡୋନିଆ ଗ୍ରୀଷ୍ମକାଳ ସମୟ"}
            lg{"ନ୍ୟୁ କାଲେଡୋନିଆ ସମୟ"}
            ls{"ନ୍ୟୁ କାଲେଡୋନିଆ ମାନାଙ୍କ ସମୟ"}
        }
        "meta:New_Zealand"{
            ld{"ନ୍ୟୁଜିଲାଣ୍ଡ ଦିବାଲୋକ ସମୟ"}
            lg{"ନ୍ୟୁଜିଲାଣ୍ଡ ସମୟ"}
            ls{"ନ୍ୟୁଜିଲାଣ୍ଡ ମାନାଙ୍କ ସମୟ"}
        }
        "meta:Newfoundland"{
            ld{"ନ୍ୟୁଫାଉଣ୍ଡଲ୍ୟାଣ୍ଡ୍ ଦିବାଲୋକ ସମୟ"}
            lg{"ନ୍ୟୁଫାଉଣ୍ଡଲ୍ୟାଣ୍ଡ୍ ସମୟ"}
            ls{"ନ୍ୟୁଫାଉଣ୍ଡଲ୍ୟାଣ୍ଡ୍ ମାନାଙ୍କ ସମୟ"}
        }
        "meta:Niue"{
            ls{"ନିୟୁ ସମୟ"}
        }
        "meta:Norfolk"{
            ls{"ନରଫୋକ୍‌ ଦ୍ୱୀପ ସମୟ"}
        }
        "meta:Noronha"{
            ld{"ଫର୍ଣ୍ଣାଣ୍ଡୋ ଡି ନୋରୋନ୍ନା ଗ୍ରୀଷ୍ମକାଳ ସମୟ"}
            lg{"ଫର୍ଣ୍ଣାଣ୍ଡୋ ଡି ନୋରୋନ୍ନା ସମୟ"}
            ls{"ଫର୍ଣ୍ଣାଣ୍ଡୋ ଡି ନୋରୋନ୍ନା ମାନାଙ୍କ ସମୟ"}
        }
        "meta:Novosibirsk"{
            ld{"ନୋଭୋସିବିରସ୍କ ଗ୍ରୀଷ୍ମକାଳ ସମୟ"}
            lg{"ନୋଭୋସିବିରସ୍କ ସମୟ"}
            ls{"ନୋଭୋସିବିରସ୍କ ମାନାଙ୍କ ସମୟ"}
        }
        "meta:Omsk"{
            ld{"ଓମସ୍କ ଗ୍ରୀଷ୍ମକାଳ ସମୟ"}
            lg{"ଓମସ୍କ ସମୟ"}
            ls{"ଓମସ୍କ ମାନାଙ୍କ ସମୟ"}
        }
        "meta:Pakistan"{
            ld{"ପାକିସ୍ତାନ ଗ୍ରୀଷ୍ମକାଳ ସମୟ"}
            lg{"ପାକିସ୍ତାନ ସମୟ"}
            ls{"ପାକିସ୍ତାନ ମାନାଙ୍କ ସମୟ"}
        }
        "meta:Palau"{
            ls{"ପାଲାଉ ସମୟ"}
        }
        "meta:Papua_New_Guinea"{
            ls{"ପପୁଆ ନ୍ୟୁ ଗୁନିଆ ସମୟ"}
        }
        "meta:Paraguay"{
            ld{"ପାରାଗୁଏ ଗ୍ରୀଷ୍ମକାଳ ସମୟ"}
            lg{"ପାରାଗୁଏ ସମୟ"}
            ls{"ପାରାଗୁଏ ମାନାଙ୍କ ସମୟ"}
        }
        "meta:Peru"{
            ld{"ପେରୁ ଗ୍ରୀଷ୍ମକାଳ ସମୟ"}
            lg{"ପେରୁ ସମୟ"}
            ls{"ପେରୁ ମାନାଙ୍କ ସମୟ"}
        }
        "meta:Philippines"{
            ld{"ଫିଲିପାଇନ୍‌ ଗ୍ରୀଷ୍ମକାଳ ସମୟ"}
            lg{"ଫିଲିପାଇନ୍‌ ସମୟ"}
            ls{"ଫିଲିପାଇନ୍‌ ମାନାଙ୍କ ସମୟ"}
        }
        "meta:Phoenix_Islands"{
            ls{"ଫୋନିକ୍ସ ଦ୍ୱୀପପୁଞ୍ଜ ସମୟ"}
        }
        "meta:Pierre_Miquelon"{
            ld{"ସେଣ୍ଟ. ପିଏରେ ଏବଂ ମିକ୍ୟୁଲୋନ୍ ଦିବାଲୋକ ସମୟ"}
            lg{"ସେଣ୍ଟ. ପିଏରେ ଏବଂ ମିକ୍ୟୁଲୋନ୍ ସମୟ"}
            ls{"ସେଣ୍ଟ. ପିଏରେ ଏବଂ ମିକ୍ୟୁଲୋନ୍ ମାନାଙ୍କ ସମୟ"}
        }
        "meta:Pitcairn"{
            ls{"ପିଟକାରିନ୍‌ ସମୟ"}
        }
        "meta:Ponape"{
            ls{"ପୋନାପେ ସମୟ"}
        }
        "meta:Pyongyang"{
            ls{"ପୋୟଙ୍ଗୟାଙ୍ଗ ସମୟ"}
        }
        "meta:Reunion"{
            ls{"ରିୟୁନିଅନ୍‌ ସମୟ"}
        }
        "meta:Rothera"{
            ls{"ରୋଥେରା ସମୟ"}
        }
        "meta:Sakhalin"{
            ld{"ସଖାଲିନ୍ ଗ୍ରୀଷ୍ମକାଳ ସମୟ"}
            lg{"ସଖାଲିନ୍ ସମୟ"}
            ls{"ସଖାଲିନ୍ ମାନାଙ୍କ ସମୟ"}
        }
        "meta:Samoa"{
            ld{"ସାମୋଆ ଦିବାଲୋକ ସମୟ"}
            lg{"ସାମୋଆ ସମୟ"}
            ls{"ସାମୋଆ ମାନାଙ୍କ ସମୟ"}
        }
        "meta:Seychelles"{
            ls{"ସେଚେଲ୍ଲେସ୍‌ ସମୟ"}
        }
        "meta:Singapore"{
            ls{"ସିଙ୍ଗାପୁର୍‌ ମାନାଙ୍କ ସମୟ"}
        }
        "meta:Solomon"{
            ls{"ସୋଲୋମନ ଦ୍ୱୀପପୁଞ୍ଜ ସମୟ"}
        }
        "meta:South_Georgia"{
            ls{"ଦକ୍ଷିଣ ଜର୍ଜିଆ ସମୟ"}
        }
        "meta:Suriname"{
            ls{"ସୁରିନେମ୍‌ ସମୟ"}
        }
        "meta:Syowa"{
            ls{"ସୋୱା ସମୟ"}
        }
        "meta:Tahiti"{
            ls{"ତାହିତି ସମୟ"}
        }
        "meta:Taipei"{
            ld{"ତାଇପେଇ ଦିବାଲୋକ ସମୟ"}
            lg{"ତାଇପେଇ ସମୟ"}
            ls{"ତାଇପେଇ ମାନାଙ୍କ ସମୟ"}
        }
        "meta:Tajikistan"{
            ls{"ତାଜିକିସ୍ତାନ ସମୟ"}
        }
        "meta:Tokelau"{
            ls{"ଟୋକେଲାଉ ସମୟ"}
        }
        "meta:Tonga"{
            ld{"ଟୋଙ୍ଗା ଗ୍ରୀଷ୍ମକାଳ ସମୟ"}
            lg{"ଟୋଙ୍ଗା ସମୟ"}
            ls{"ଟୋଙ୍ଗା ମାନାଙ୍କ ସମୟ"}
        }
        "meta:Truk"{
            ls{"ଚୂକ୍‌ ସମୟ"}
        }
        "meta:Turkmenistan"{
            ld{"ତୁର୍କମେନିସ୍ତାନ ଖରାଦିନ ସମୟ"}
            lg{"ତୁର୍କମେନିସ୍ତାନ ସମୟ"}
            ls{"ତୁର୍କମେନିସ୍ତାନ ମାନାଙ୍କ ସମୟ"}
        }
        "meta:Tuvalu"{
            ls{"ତୁଭାଲୁ ସମୟ"}
        }
        "meta:Uruguay"{
            ld{"ଉରୁଗୁଏ ଗ୍ରୀଷ୍ମକାଳ ସମୟ"}
            lg{"ଉରୁଗୁଏ ସମୟ"}
            ls{"ଉରୁଗୁଏ ମାନାଙ୍କ ସମୟ"}
        }
        "meta:Uzbekistan"{
            ld{"ଉଜବେକିସ୍ତାନ ଖରାଦିନ ସମୟ"}
            lg{"ଉଜବେକିସ୍ତାନ ସମୟ"}
            ls{"ଉଜବେକିସ୍ତାନ ମାନାଙ୍କ ସମୟ"}
        }
        "meta:Vanuatu"{
            ld{"ଭାନୁଆଟୁ ଖରାଦିନ ସମୟ"}
            lg{"ଭାନୁଆଟୁ ସମୟ"}
            ls{"ଭାନୁଆଟୁ ମାନାଙ୍କ ସମୟ"}
        }
        "meta:Venezuela"{
            ls{"ଭେନିଜୁଏଲା ସମୟ"}
        }
        "meta:Vladivostok"{
            ld{"ଭ୍ଲାଡିଭୋଷ୍ଟୋକ୍ ଗ୍ରୀଷ୍ମକାଳ ସମୟ"}
            lg{"ଭ୍ଲାଡିଭୋଷ୍ଟୋକ୍ ସମୟ"}
            ls{"ଭ୍ଲାଡିଭୋଷ୍ଟୋକ୍ ମାନାଙ୍କ ସମୟ"}
        }
        "meta:Volgograd"{
            ld{"ଭୋଲଗୋଗ୍ରାଡ୍ ଗ୍ରୀଷ୍ମକାଳ ସମୟ"}
            lg{"ଭୋଲଗୋଗ୍ରାଡ୍ ସମୟ"}
            ls{"ଭୋଲଗୋଗ୍ରାଡ୍ ମାନାଙ୍କ ସମୟ"}
        }
        "meta:Vostok"{
            ls{"ଭୋଷ୍ଟୋକ୍‌ ସମୟ"}
        }
        "meta:Wake"{
            ls{"ୱେକ୍‌ ଦ୍ୱୀପ ସମୟ"}
        }
        "meta:Wallis"{
            ls{"ୱାଲିସ୍‌ ଏବଂ ଫୁଟୁନା ସମୟ"}
        }
        "meta:Yakutsk"{
            ld{"ୟାକୁଟସ୍କ ଗ୍ରୀଷ୍ମକାଳ ସମୟ"}
            lg{"ୟାକୁଟସ୍କ ସମୟ"}
            ls{"ୟାକୁଟସ୍କ ମାନାଙ୍କ ସମୟ"}
        }
        "meta:Yekaterinburg"{
            ld{"ୟେକାଟେରିନବର୍ଗ୍ ଗ୍ରୀଷ୍ମକାଳ ସମୟ"}
            lg{"ୟେକାଟେରିନବର୍ଗ୍ ସମୟ"}
            ls{"ୟେକାଟେରିନବର୍ଗ୍ ମାନାଙ୍କ ସମୟ"}
        }
        fallbackFormat{"{1} ({0})"}
        gmtFormat{"GMT{0}"}
        gmtZeroFormat{"GMT"}
        hourFormat{"+HH:mm;-HH:mm"}
        regionFormat{"{0} ସମୟ"}
        regionFormatDaylight{"{0} ଦିବାଲୋକ ସମୟ"}
        regionFormatStandard{"{0} ମାନାଙ୍କ ସମୟ"}
    }
}
