﻿// © 2016 and later: Unicode, Inc. and others.
// License & terms of use: http://www.unicode.org/copyright.html#License
sk{
    Version{"2.1.41.97"}
    zoneStrings{
        "Etc:UTC"{
            ls{"koordinovaný svetový čas"}
            ss{"UTC"}
        }
        "Europe:Dublin"{
            ld{"írsky štandardný čas"}
        }
        "Europe:London"{
            ld{"britský letný čas"}
        }
        "Pacific:Honolulu"{
            sd{"HDT"}
            sg{"HST"}
            ss{"HST"}
        }
        "meta:Acre"{
            ld{"acrejský letný čas"}
            lg{"acrejský čas"}
            ls{"acrejský štandardný čas"}
        }
        "meta:Afghanistan"{
            ls{"afganský čas"}
        }
        "meta:Africa_Central"{
            ls{"stredoafrický čas"}
        }
        "meta:Africa_Eastern"{
            ls{"východoafrický čas"}
        }
        "meta:Africa_Southern"{
            ls{"juhoafrický čas"}
        }
        "meta:Africa_Western"{
            ld{"západoafrický letný čas"}
            lg{"západoafrický čas"}
            ls{"západoafrický štandardný čas"}
        }
        "meta:Alaska"{
            ld{"aljašský letný čas"}
            lg{"aljašský čas"}
            ls{"aljašský štandardný čas"}
        }
        "meta:Almaty"{
            ld{"almaatský letný čas"}
            lg{"almaatský čas"}
            ls{"almaatský štandardný čas"}
        }
        "meta:Amazon"{
            ld{"amazonský letný čas"}
            lg{"amazonský čas"}
            ls{"amazonský štandardný čas"}
        }
        "meta:America_Central"{
            ld{"severoamerický centrálny letný čas"}
            lg{"severoamerický centrálny čas"}
            ls{"severoamerický centrálny štandardný čas"}
        }
        "meta:America_Eastern"{
            ld{"severoamerický východný letný čas"}
            lg{"severoamerický východný čas"}
            ls{"severoamerický východný štandardný čas"}
        }
        "meta:America_Mountain"{
            ld{"severoamerický horský letný čas"}
            lg{"severoamerický horský čas"}
            ls{"severoamerický horský štandardný čas"}
        }
        "meta:America_Pacific"{
            ld{"severoamerický tichomorský letný čas"}
            lg{"severoamerický tichomorský čas"}
            ls{"severoamerický tichomorský štandardný čas"}
        }
        "meta:Anadyr"{
            ld{"Anadyrský letný čas"}
            lg{"Anadyrský čas"}
            ls{"Anadyrský štandardný čas"}
        }
        "meta:Apia"{
            ld{"apijský letný čas"}
            lg{"apijský čas"}
            ls{"apijský štandardný čas"}
        }
        "meta:Aqtau"{
            ld{"aktauský letný čas"}
            lg{"aktauský čas"}
            ls{"aktauský štandardný čas"}
        }
        "meta:Aqtobe"{
            ld{"aktobský letný čas"}
            lg{"aktobský čas"}
            ls{"aktobský štandardný čas"}
        }
        "meta:Arabian"{
            ld{"arabský letný čas"}
            lg{"arabský čas"}
            ls{"arabský štandardný čas"}
        }
        "meta:Argentina"{
            ld{"argentínsky letný čas"}
            lg{"argentínsky čas"}
            ls{"argentínsky štandardný čas"}
        }
        "meta:Argentina_Western"{
            ld{"západoargentínsky letný čas"}
            lg{"západoargentínsky čas"}
            ls{"západoargentínsky štandardný čas"}
        }
        "meta:Armenia"{
            ld{"arménsky letný čas"}
            lg{"arménsky čas"}
            ls{"arménsky štandardný čas"}
        }
        "meta:Atlantic"{
            ld{"atlantický letný čas"}
            lg{"atlantický čas"}
            ls{"atlantický štandardný čas"}
        }
        "meta:Australia_Central"{
            ld{"stredoaustrálsky letný čas"}
            lg{"stredoaustrálsky čas"}
            ls{"stredoaustrálsky štandardný čas"}
        }
        "meta:Australia_CentralWestern"{
            ld{"stredozápadný austrálsky letný čas"}
            lg{"stredozápadný austrálsky čas"}
            ls{"stredozápadný austrálsky štandardný čas"}
        }
        "meta:Australia_Eastern"{
            ld{"východoaustrálsky letný čas"}
            lg{"východoaustrálsky čas"}
            ls{"východoaustrálsky štandardný čas"}
        }
        "meta:Australia_Western"{
            ld{"západoaustrálsky letný čas"}
            lg{"západoaustrálsky čas"}
            ls{"západoaustrálsky štandardný čas"}
        }
        "meta:Azerbaijan"{
            ld{"azerbajdžanský letný čas"}
            lg{"azerbajdžanský čas"}
            ls{"azerbajdžanský štandardný čas"}
        }
        "meta:Azores"{
            ld{"azorský letný čas"}
            lg{"azorský čas"}
            ls{"azorský štandardný čas"}
        }
        "meta:Bangladesh"{
            ld{"bangladéšsky letný čas"}
            lg{"bangladéšsky čas"}
            ls{"bangladéšsky štandardný čas"}
        }
        "meta:Bhutan"{
            ls{"bhutánsky čas"}
        }
        "meta:Bolivia"{
            ls{"bolívijský čas"}
        }
        "meta:Brasilia"{
            ld{"brazílsky letný čas"}
            lg{"brazílsky čas"}
            ls{"brazílsky štandardný čas"}
        }
        "meta:Brunei"{
            ls{"brunejský čas"}
        }
        "meta:Cape_Verde"{
            ld{"kapverdský letný čas"}
            lg{"kapverdský čas"}
            ls{"kapverdský štandardný čas"}
        }
        "meta:Casey"{
            ls{"čas Caseyho stanice"}
        }
        "meta:Chamorro"{
            ls{"chamorrský čas"}
        }
        "meta:Chatham"{
            ld{"chathamský letný čas"}
            lg{"chathamský čas"}
            ls{"chathamský štandardný čas"}
        }
        "meta:Chile"{
            ld{"čilský letný čas"}
            lg{"čilský čas"}
            ls{"čilský štandardný čas"}
        }
        "meta:China"{
            ld{"čínsky letný čas"}
            lg{"čínsky čas"}
            ls{"čínsky štandardný čas"}
        }
        "meta:Choibalsan"{
            ld{"čojbalsanský letný čas"}
            lg{"čojbalsanský čas"}
            ls{"čojbalsanský štandardný čas"}
        }
        "meta:Christmas"{
            ls{"čas Vianočného ostrova"}
        }
        "meta:Cocos"{
            ls{"čas Kokosových ostrovov"}
        }
        "meta:Colombia"{
            ld{"kolumbijský letný čas"}
            lg{"kolumbijský čas"}
            ls{"kolumbijský štandardný čas"}
        }
        "meta:Cook"{
            ld{"letný čas Cookových ostrovov"}
            lg{"čas Cookových ostrovov"}
            ls{"štandardný čas Cookových ostrovov"}
        }
        "meta:Cuba"{
            ld{"kubánsky letný čas"}
            lg{"kubánsky čas"}
            ls{"kubánsky štandardný čas"}
        }
        "meta:Davis"{
            ls{"čas Davisovej stanice"}
        }
        "meta:DumontDUrville"{
            ls{"čas stanice Dumonta d’Urvillea"}
        }
        "meta:East_Timor"{
            ls{"východotimorský čas"}
        }
        "meta:Easter"{
            ld{"letný čas Veľkonočného ostrova"}
            lg{"čas Veľkonočného ostrova"}
            ls{"štandardný čas Veľkonočného ostrova"}
        }
        "meta:Ecuador"{
            ls{"ekvádorský čas"}
        }
        "meta:Europe_Central"{
            ld{"stredoeurópsky letný čas"}
            lg{"stredoeurópsky čas"}
            ls{"stredoeurópsky štandardný čas"}
            sd{"SELČ"}
            sg{"SEČ"}
            ss{"SEČ"}
        }
        "meta:Europe_Eastern"{
            ld{"východoeurópsky letný čas"}
            lg{"východoeurópsky čas"}
            ls{"východoeurópsky štandardný čas"}
        }
        "meta:Europe_Further_Eastern"{
            ls{"minský čas"}
        }
        "meta:Europe_Western"{
            ld{"západoeurópsky letný čas"}
            lg{"západoeurópsky čas"}
            ls{"západoeurópsky štandardný čas"}
        }
        "meta:Falkland"{
            ld{"falklandský letný čas"}
            lg{"falklandský čas"}
            ls{"falklandský štandardný čas"}
        }
        "meta:Fiji"{
            ld{"fidžijský letný čas"}
            lg{"fidžijský čas"}
            ls{"fidžijský štandardný čas"}
        }
        "meta:French_Guiana"{
            ls{"francúzskoguyanský čas"}
        }
        "meta:French_Southern"{
            ls{"čas Francúzskych južných a antarktických území"}
        }
        "meta:GMT"{
            ls{"greenwichský čas"}
        }
        "meta:Galapagos"{
            ls{"galapágsky čas"}
        }
        "meta:Gambier"{
            ls{"gambierský čas"}
        }
        "meta:Georgia"{
            ld{"gruzínsky letný čas"}
            lg{"gruzínsky čas"}
            ls{"gruzínsky štandardný čas"}
        }
        "meta:Gilbert_Islands"{
            ls{"čas Gilbertových ostrovov"}
        }
        "meta:Greenland_Eastern"{
            ld{"východogrónsky letný čas"}
            lg{"východogrónsky čas"}
            ls{"východogrónsky štandardný čas"}
        }
        "meta:Greenland_Western"{
            ld{"západogrónsky letný čas"}
            lg{"západogrónsky čas"}
            ls{"západogrónsky štandardný čas"}
        }
        "meta:Guam"{
            ls{"guamský čas"}
        }
        "meta:Gulf"{
            ls{"štandardný čas Perzského zálivu"}
        }
        "meta:Guyana"{
            ls{"guyanský čas"}
        }
        "meta:Hawaii_Aleutian"{
            ld{"havajsko-aleutský letný čas"}
            lg{"havajsko-aleutský čas"}
            ls{"havajsko-aleutský štandardný čas"}
        }
        "meta:Hong_Kong"{
            ld{"hongkonský letný čas"}
            lg{"hongkonský čas"}
            ls{"hongkonský štandardný čas"}
        }
        "meta:Hovd"{
            ld{"chovdský letný čas"}
            lg{"chovdský čas"}
            ls{"chovdský štandardný čas"}
        }
        "meta:India"{
            ls{"indický čas"}
        }
        "meta:Indian_Ocean"{
            ls{"indickooceánsky čas"}
        }
        "meta:Indochina"{
            ls{"indočínsky čas"}
        }
        "meta:Indonesia_Central"{
            ls{"stredoindonézsky čas"}
        }
        "meta:Indonesia_Eastern"{
            ls{"východoindonézsky čas"}
        }
        "meta:Indonesia_Western"{
            ls{"západoindonézsky čas"}
        }
        "meta:Iran"{
            ld{"iránsky letný čas"}
            lg{"iránsky čas"}
            ls{"iránsky štandardný čas"}
        }
        "meta:Irkutsk"{
            ld{"irkutský letný čas"}
            lg{"irkutský čas"}
            ls{"irkutský štandardný čas"}
        }
        "meta:Israel"{
            ld{"izraelský letný čas"}
            lg{"izraelský čas"}
            ls{"izraelský štandardný čas"}
        }
        "meta:Japan"{
            ld{"japonský letný čas"}
            lg{"japonský čas"}
            ls{"japonský štandardný čas"}
        }
        "meta:Kamchatka"{
            ld{"Petropavlovsk-Kamčatskijský letný čas"}
            lg{"Petropavlovsk-Kamčatský čas"}
            ls{"Petropavlovsk-Kamčatský štandardný čas"}
        }
        "meta:Kazakhstan_Eastern"{
            ls{"východokazachstanský čas"}
        }
        "meta:Kazakhstan_Western"{
            ls{"západokazachstanský čas"}
        }
        "meta:Korea"{
            ld{"kórejský letný čas"}
            lg{"kórejský čas"}
            ls{"kórejský štandardný čas"}
        }
        "meta:Kosrae"{
            ls{"kosrajský čas"}
        }
        "meta:Krasnoyarsk"{
            ld{"krasnojarský letný čas"}
            lg{"krasnojarský čas"}
            ls{"krasnojarský štandardný čas"}
        }
        "meta:Kyrgystan"{
            ls{"kirgizský čas"}
        }
        "meta:Lanka"{
            ls{"srílanský čas"}
        }
        "meta:Line_Islands"{
            ls{"čas Rovníkových ostrovov"}
        }
        "meta:Lord_Howe"{
            ld{"letný čas ostrova lorda Howa"}
            lg{"čas ostrova lorda Howa"}
            ls{"štandardný čas ostrova lorda Howa"}
        }
        "meta:Macau"{
            ld{"macajský letný čas"}
            lg{"macajský čas"}
            ls{"macajský štandardný čas"}
        }
        "meta:Macquarie"{
            ls{"čas ostrova Macquarie"}
        }
        "meta:Magadan"{
            ld{"magadanský letný čas"}
            lg{"magadanský čas"}
            ls{"magadanský štandardný čas"}
        }
        "meta:Malaysia"{
            ls{"malajzijský čas"}
        }
        "meta:Maldives"{
            ls{"maldivský čas"}
        }
        "meta:Marquesas"{
            ls{"markézsky čas"}
        }
        "meta:Marshall_Islands"{
            ls{"čas Marshallových ostrovov"}
        }
        "meta:Mauritius"{
            ld{"maurícijský letný čas"}
            lg{"maurícijský čas"}
            ls{"maurícijský štandardný čas"}
        }
        "meta:Mawson"{
            ls{"čas Mawsonovej stanice"}
        }
        "meta:Mexico_Northwest"{
            ld{"severozápadný mexický letný čas"}
            lg{"severozápadný mexický čas"}
            ls{"severozápadný mexický štandardný čas"}
        }
        "meta:Mexico_Pacific"{
            ld{"mexický tichomorský letný čas"}
            lg{"mexický tichomorský čas"}
            ls{"mexický tichomorský štandardný čas"}
        }
        "meta:Mongolia"{
            ld{"ulanbátarský letný čas"}
            lg{"ulanbátarský čas"}
            ls{"ulanbátarský štandardný čas"}
        }
        "meta:Moscow"{
            ld{"moskovský letný čas"}
            lg{"moskovský čas"}
            ls{"moskovský štandardný čas"}
        }
        "meta:Myanmar"{
            ls{"mjanmarský čas"}
        }
        "meta:Nauru"{
            ls{"nauruský čas"}
        }
        "meta:Nepal"{
            ls{"nepálsky čas"}
        }
        "meta:New_Caledonia"{
            ld{"novokaledónsky letný čas"}
            lg{"novokaledónsky čas"}
            ls{"novokaledónsky štandardný čas"}
        }
        "meta:New_Zealand"{
            ld{"novozélandský letný čas"}
            lg{"novozélandský čas"}
            ls{"novozélandský štandardný čas"}
        }
        "meta:Newfoundland"{
            ld{"newfoundlandský letný čas"}
            lg{"newfoundlandský čas"}
            ls{"newfoundlandský štandardný čas"}
        }
        "meta:Niue"{
            ls{"niuejský čas"}
        }
        "meta:Norfolk"{
            ls{"norfolský čas"}
        }
        "meta:Noronha"{
            ld{"letný čas súostrovia Fernando de Noronha"}
            lg{"čas súostrovia Fernando de Noronha"}
            ls{"štandardný čas súostrovia Fernando de Noronha"}
        }
        "meta:North_Mariana"{
            ls{"severomariánsky čas"}
        }
        "meta:Novosibirsk"{
            ld{"novosibirský letný čas"}
            lg{"novosibirský čas"}
            ls{"novosibirský štandardný čas"}
        }
        "meta:Omsk"{
            ld{"omský letný čas"}
            lg{"omský čas"}
            ls{"omský štandardný čas"}
        }
        "meta:Pakistan"{
            ld{"pakistanský letný čas"}
            lg{"pakistanský čas"}
            ls{"pakistanský štandardný čas"}
        }
        "meta:Palau"{
            ls{"palauský čas"}
        }
        "meta:Papua_New_Guinea"{
            ls{"čas Papuy-Novej Guiney"}
        }
        "meta:Paraguay"{
            ld{"paraguajský letný čas"}
            lg{"paraguajský čas"}
            ls{"paraguajský štandardný čas"}
        }
        "meta:Peru"{
            ld{"peruánsky letný čas"}
            lg{"peruánsky čas"}
            ls{"peruánsky štandardný čas"}
        }
        "meta:Philippines"{
            ld{"filipínsky letný čas"}
            lg{"filipínsky čas"}
            ls{"filipínsky štandardný čas"}
        }
        "meta:Phoenix_Islands"{
            ls{"čas Fénixových ostrovov"}
        }
        "meta:Pierre_Miquelon"{
            ld{"pierre-miquelonský letný čas"}
            lg{"pierre-miquelonský čas"}
            ls{"pierre-miquelonský štandardný čas"}
        }
        "meta:Pitcairn"{
            ls{"čas Pitcairnových ostrovov"}
        }
        "meta:Ponape"{
            ls{"ponapský čas"}
        }
        "meta:Pyongyang"{
            ls{"pchjongjanský čas"}
        }
        "meta:Qyzylorda"{
            ld{"kyzylordský letný čas"}
            lg{"kyzylordský čas"}
            ls{"kyzylordský štandardný čas"}
        }
        "meta:Reunion"{
            ls{"réunionský čas"}
        }
        "meta:Rothera"{
            ls{"čas Rotherovej stanice"}
        }
        "meta:Sakhalin"{
            ld{"sachalinský letný čas"}
            lg{"sachalinský čas"}
            ls{"sachalinský štandardný čas"}
        }
        "meta:Samara"{
            ld{"Samarský letný čas"}
            lg{"Samarský čas"}
            ls{"Samarský štandardný čas"}
        }
        "meta:Samoa"{
            ld{"samojský letný čas"}
            lg{"samojský čas"}
            ls{"samojský štandardný čas"}
        }
        "meta:Seychelles"{
            ls{"seychelský čas"}
        }
        "meta:Singapore"{
            ls{"singapurský štandardný čas"}
        }
        "meta:Solomon"{
            ls{"čas Šalamúnových ostrovov"}
        }
        "meta:South_Georgia"{
            ls{"čas Južnej Georgie"}
        }
        "meta:Suriname"{
            ls{"surinamský čas"}
        }
        "meta:Syowa"{
            ls{"čas stanice Šówa"}
        }
        "meta:Tahiti"{
            ls{"tahitský čas"}
        }
        "meta:Taipei"{
            ld{"tchajpejský letný čas"}
            lg{"tchajpejský čas"}
            ls{"tchajpejský štandardný čas"}
        }
        "meta:Tajikistan"{
            ls{"tadžický čas"}
        }
        "meta:Tokelau"{
            ls{"tokelauský čas"}
        }
        "meta:Tonga"{
            ld{"tonžský letný čas"}
            lg{"tonžský čas"}
            ls{"tonžský štandardný čas"}
        }
        "meta:Truk"{
            ls{"chuukský čas"}
        }
        "meta:Turkmenistan"{
            ld{"turkménsky letný čas"}
            lg{"turkménsky čas"}
            ls{"turkménsky štandardný čas"}
        }
        "meta:Tuvalu"{
            ls{"tuvalský čas"}
        }
        "meta:Uruguay"{
            ld{"uruguajský letný čas"}
            lg{"uruguajský čas"}
            ls{"uruguajský štandardný čas"}
        }
        "meta:Uzbekistan"{
            ld{"uzbecký letný čas"}
            lg{"uzbecký čas"}
            ls{"uzbecký štandardný čas"}
        }
        "meta:Vanuatu"{
            ld{"vanuatský letný čas"}
            lg{"vanuatský čas"}
            ls{"vanuatský štandardný čas"}
        }
        "meta:Venezuela"{
            ls{"venezuelský čas"}
        }
        "meta:Vladivostok"{
            ld{"vladivostocký letný čas"}
            lg{"vladivostocký čas"}
            ls{"vladivostocký štandardný čas"}
        }
        "meta:Volgograd"{
            ld{"volgogradský letný čas"}
            lg{"volgogradský čas"}
            ls{"volgogradský štandardný čas"}
        }
        "meta:Vostok"{
            ls{"čas stanice Vostok"}
        }
        "meta:Wake"{
            ls{"čas ostrova Wake"}
        }
        "meta:Wallis"{
            ls{"čas ostrovov Wallis a Futuna"}
        }
        "meta:Yakutsk"{
            ld{"jakutský letný čas"}
            lg{"jakutský čas"}
            ls{"jakutský štandardný čas"}
        }
        "meta:Yekaterinburg"{
            ld{"jekaterinburský letný čas"}
            lg{"jekaterinburský čas"}
            ls{"jekaterinburský štandardný čas"}
        }
        fallbackFormat{"{1} ({0})"}
        gmtFormat{"GMT{0}"}
        gmtZeroFormat{"GMT"}
        hourFormat{"+HH:mm;-HH:mm"}
        regionFormat{"časové pásmo {0}"}
        regionFormatDaylight{"{0} (+1)"}
        regionFormatStandard{"{0} (+0)"}
    }
}
