﻿// © 2016 and later: Unicode, Inc. and others.
// License & terms of use: http://www.unicode.org/copyright.html#License
sr{
    Version{"2.1.41.97"}
    zoneStrings{
        "Etc:UTC"{
            ls{"Координисано универзално време"}
        }
        "Europe:Dublin"{
            ld{"Ирска, стандардно време"}
        }
        "Europe:London"{
            ld{"Британија, летње време"}
        }
        "meta:Acre"{
            ld{"Акре летње рачунање времена"}
            lg{"Акре време"}
            ls{"Акре стандардно време"}
        }
        "meta:Afghanistan"{
            ls{"Авганистан време"}
        }
        "meta:Africa_Central"{
            ls{"Централно-афричко време"}
        }
        "meta:Africa_Eastern"{
            ls{"Источно-афричко време"}
        }
        "meta:Africa_Southern"{
            ls{"Јужно-афричко време"}
        }
        "meta:Africa_Western"{
            ld{"Западно-афричко летње време"}
            lg{"Западно-афричко време"}
            ls{"Западно-афричко стандардно време"}
        }
        "meta:Alaska"{
            ld{"Аљаска, летње време"}
            lg{"Аљаска"}
            ls{"Аљаска, стандардно време"}
        }
        "meta:Almaty"{
            ld{"Алмати летње рачунање времена"}
            lg{"Алмати време"}
            ls{"Алмати стандардно време"}
        }
        "meta:Amazon"{
            ld{"Амазон, летње време"}
            lg{"Амазон време"}
            ls{"Амазон, стандардно време"}
        }
        "meta:America_Central"{
            ld{"Северноамеричко централно летње време"}
            lg{"Северноамеричко централно време"}
            ls{"Северноамеричко централно стандардно време"}
        }
        "meta:America_Eastern"{
            ld{"Северноамеричко источно летње време"}
            lg{"Северноамеричко источно време"}
            ls{"Северноамеричко источно стандардно време"}
        }
        "meta:America_Mountain"{
            ld{"Северноамеричко планинско летње време"}
            lg{"Северноамеричко планинско време"}
            ls{"Северноамеричко планинско стандардно време"}
        }
        "meta:America_Pacific"{
            ld{"Северноамеричко пацифичко летње време"}
            lg{"Северноамеричко пацифичко време"}
            ls{"Северноамеричко пацифичко стандардно време"}
        }
        "meta:Anadyr"{
            ld{"Анадир летње рачунање времена"}
            lg{"Анадир време"}
            ls{"Анадир стандардно време"}
        }
        "meta:Apia"{
            ld{"Апија, летње време"}
            lg{"Апија време"}
            ls{"Апија, стандардно време"}
        }
        "meta:Aqtau"{
            ld{"Акватау летње рачунање времена"}
            lg{"Акватау време"}
            ls{"Акватау стандардно време"}
        }
        "meta:Aqtobe"{
            ld{"Акутобе летње рачунање времена"}
            lg{"Акутобе време"}
            ls{"Акутобе стандардно време"}
        }
        "meta:Arabian"{
            ld{"Арабијско летње време"}
            lg{"Арабијско време"}
            ls{"Арабијско стандардно време"}
        }
        "meta:Argentina"{
            ld{"Аргентина, летње време"}
            lg{"Аргентина време"}
            ls{"Аргентина, стандардно време"}
        }
        "meta:Argentina_Western"{
            ld{"Западна Аргентина, летње време"}
            lg{"Западна Аргентина време"}
            ls{"Западна Аргентина, стандардно време"}
        }
        "meta:Armenia"{
            ld{"Јерменија, летње време"}
            lg{"Јерменија време"}
            ls{"Јерменија, стандардно време"}
        }
        "meta:Atlantic"{
            ld{"Атлантско летње време"}
            lg{"Атлантско време"}
            ls{"Атлантско стандардно време"}
        }
        "meta:Australia_Central"{
            ld{"Аустралијско централно летње време"}
            lg{"Аустралијско централно време"}
            ls{"Аустралијско централно стандардно време"}
        }
        "meta:Australia_CentralWestern"{
            ld{"Аустралијско централно западно летње време"}
            lg{"Аустралијско централно западно време"}
            ls{"Аустралијско централно западно стандардно време"}
        }
        "meta:Australia_Eastern"{
            ld{"Аустралијско источно летње време"}
            lg{"Аустралијско источно време"}
            ls{"Аустралијско источно стандардно време"}
        }
        "meta:Australia_Western"{
            ld{"Аустралијско западно летње време"}
            lg{"Аустралијско западно време"}
            ls{"Аустралијско западно стандардно време"}
        }
        "meta:Azerbaijan"{
            ld{"Азербејџан, летње време"}
            lg{"Азербејџан време"}
            ls{"Азербејџан, стандардно време"}
        }
        "meta:Azores"{
            ld{"Азори, летње време"}
            lg{"Азори време"}
            ls{"Азори, стандардно време"}
        }
        "meta:Bangladesh"{
            ld{"Бангладеш, летње време"}
            lg{"Бангладеш време"}
            ls{"Бангладеш, стандардно време"}
        }
        "meta:Bhutan"{
            ls{"Бутан време"}
        }
        "meta:Bolivia"{
            ls{"Боливија време"}
        }
        "meta:Brasilia"{
            ld{"Бразилија, летње време"}
            lg{"Бразилија време"}
            ls{"Бразилија, стандардно време"}
        }
        "meta:Brunei"{
            ls{"Брунеј Дарусалум време"}
        }
        "meta:Cape_Verde"{
            ld{"Зеленортска Острва, летње време"}
            lg{"Зеленортска Острва време"}
            ls{"Зеленортска Острва, стандардно време"}
        }
        "meta:Chamorro"{
            ls{"Чаморо време"}
        }
        "meta:Chatham"{
            ld{"Чатам, летње време"}
            lg{"Чатам време"}
            ls{"Чатам, стандардно време"}
        }
        "meta:Chile"{
            ld{"Чиле, летње време"}
            lg{"Чиле време"}
            ls{"Чиле, стандардно време"}
        }
        "meta:China"{
            ld{"Кина, летње време"}
            lg{"Кина време"}
            ls{"Кинеско стандардно време"}
        }
        "meta:Choibalsan"{
            ld{"Чојбалсан, летње време"}
            lg{"Чојбалсан време"}
            ls{"Чојбалсан, стандардно време"}
        }
        "meta:Christmas"{
            ls{"Божићно острво време"}
        }
        "meta:Cocos"{
            ls{"Кокос (Келинг) Острва време"}
        }
        "meta:Colombia"{
            ld{"Колумбија, летње време"}
            lg{"Колумбија време"}
            ls{"Колумбија, стандардно време"}
        }
        "meta:Cook"{
            ld{"Кукова острва, полу-летње време"}
            lg{"Кукова острва време"}
            ls{"Кукова острва, стандардно време"}
        }
        "meta:Cuba"{
            ld{"Куба, летње време"}
            lg{"Куба"}
            ls{"Куба, стандардно време"}
        }
        "meta:Davis"{
            ls{"Дејвис време"}
        }
        "meta:DumontDUrville"{
            ls{"Димон д’Урвил време"}
        }
        "meta:East_Timor"{
            ls{"Источни тимор време"}
        }
        "meta:Easter"{
            ld{"Ускршња острва, летње време"}
            lg{"Ускршња острва време"}
            ls{"Ускршња острва, стандардно време"}
        }
        "meta:Ecuador"{
            ls{"Еквадор време"}
        }
        "meta:Europe_Central"{
            ld{"Средњеевропско летње време"}
            lg{"Средњеевропско време"}
            ls{"Средњеевропско стандардно време"}
            sd{"CEST"}
            sg{"CET"}
            ss{"CET"}
        }
        "meta:Europe_Eastern"{
            ld{"Источноевропско летње време"}
            lg{"Источноевропско време"}
            ls{"Источноевропско стандардно време"}
            sd{"EEST"}
            sg{"EET"}
            ss{"EET"}
        }
        "meta:Europe_Further_Eastern"{
            ls{"Даљи исток Европе"}
        }
        "meta:Europe_Western"{
            ld{"Западноевропско летње време"}
            lg{"Западноевропско време"}
            ls{"Западноевропско стандардно време"}
            sd{"WEST"}
            sg{"WET"}
            ss{"WET"}
        }
        "meta:Falkland"{
            ld{"Фолкландска Острва, летње време"}
            lg{"Фолкландска Острва време"}
            ls{"Фолкландска Острва, стандардно време"}
        }
        "meta:Fiji"{
            ld{"Фиџи, летње време"}
            lg{"Фиџи време"}
            ls{"Фиџи, стандардно време"}
        }
        "meta:French_Guiana"{
            ls{"Француска Гвајана време"}
        }
        "meta:French_Southern"{
            ls{"Француско јужно и антарктичко време"}
        }
        "meta:GMT"{
            ls{"Средње време по Гриничу"}
            ss{"GMT"}
        }
        "meta:Galapagos"{
            ls{"Галапагос време"}
        }
        "meta:Gambier"{
            ls{"Гамбије време"}
        }
        "meta:Georgia"{
            ld{"Грузија, летње време"}
            lg{"Грузија време"}
            ls{"Грузија, стандардно време"}
        }
        "meta:Gilbert_Islands"{
            ls{"Гилберт острва време"}
        }
        "meta:Greenland_Eastern"{
            ld{"Источни Гренланд, летње време"}
            lg{"Источни Гренланд"}
            ls{"Источни Гренланд, стандардно време"}
        }
        "meta:Greenland_Western"{
            ld{"Западни Гренланд, летње време"}
            lg{"Западни Гренланд"}
            ls{"Западни Гренланд, стандардно време"}
        }
        "meta:Guam"{
            ls{"Гуам стандардно време"}
        }
        "meta:Gulf"{
            ls{"Заливско време"}
        }
        "meta:Guyana"{
            ls{"Гвајана време"}
        }
        "meta:Hawaii_Aleutian"{
            ld{"Хавајско-алеутско летње време"}
            lg{"Хавајско-алеутско време"}
            ls{"Хавајско-алеутско стандардно време"}
        }
        "meta:Hong_Kong"{
            ld{"Хонг Конг, летње време"}
            lg{"Хонг Конг време"}
            ls{"Хонг Конг, стандардно време"}
        }
        "meta:Hovd"{
            ld{"Ховд, летње време"}
            lg{"Ховд време"}
            ls{"Ховд, стандардно време"}
        }
        "meta:India"{
            ls{"Индијско стандардно време"}
        }
        "meta:Indian_Ocean"{
            ls{"Индијско океанско време"}
        }
        "meta:Indochina"{
            ls{"Индокина време"}
        }
        "meta:Indonesia_Central"{
            ls{"Централно-индонезијско време"}
        }
        "meta:Indonesia_Eastern"{
            ls{"Источно-индонезијско време"}
        }
        "meta:Indonesia_Western"{
            ls{"Западно-индонезијско време"}
        }
        "meta:Iran"{
            ld{"Иран, летње време"}
            lg{"Иран време"}
            ls{"Иран, стандардно време"}
        }
        "meta:Irkutsk"{
            ld{"Иркуцк, летње време"}
            lg{"Иркуцк време"}
            ls{"Иркуцк, стандардно време"}
        }
        "meta:Israel"{
            ld{"Израелско летње време"}
            lg{"Израелско време"}
            ls{"Израелско стандардно време"}
        }
        "meta:Japan"{
            ld{"Јапанско летње време"}
            lg{"Јапанско време"}
            ls{"Јапанско стандардно време"}
        }
        "meta:Kamchatka"{
            ld{"Петропавловско-камчатско летње рачунање времена"}
            lg{"Петропавловско-камчатско време"}
            ls{"Петропавловско-камчатско стандардно време"}
        }
        "meta:Kazakhstan_Eastern"{
            ls{"Источно-казахстанско време"}
        }
        "meta:Kazakhstan_Western"{
            ls{"Западно-казахстанско време"}
        }
        "meta:Korea"{
            ld{"Корејско летње време"}
            lg{"Корејско време"}
            ls{"Корејско стандардно време"}
        }
        "meta:Kosrae"{
            ls{"Кошре време"}
        }
        "meta:Krasnoyarsk"{
            ld{"Краснојарск, летње време"}
            lg{"Краснојарск време"}
            ls{"Краснојарск, стандардно време"}
        }
        "meta:Kyrgystan"{
            ls{"Киргистан време"}
        }
        "meta:Lanka"{
            ls{"Шри Ланка време"}
        }
        "meta:Line_Islands"{
            ls{"Острва Лајн време"}
        }
        "meta:Lord_Howe"{
            ld{"Лорд Хов, летње време"}
            lg{"Лорд Хов време"}
            ls{"Лорд Хов, стандардно време"}
        }
        "meta:Macau"{
            ld{"Макао летње рачунање времена"}
            lg{"Макао време"}
            ls{"Макао стандардно време"}
        }
        "meta:Macquarie"{
            ls{"Острво Маквери време"}
        }
        "meta:Magadan"{
            ld{"Магадан, летње време"}
            lg{"Магадан време"}
            ls{"Магадан, стандардно време"}
        }
        "meta:Malaysia"{
            ls{"Малезија време"}
        }
        "meta:Maldives"{
            ls{"Малдиви време"}
        }
        "meta:Marquesas"{
            ls{"Маркиз време"}
        }
        "meta:Marshall_Islands"{
            ls{"Маршалска Острва време"}
        }
        "meta:Mauritius"{
            ld{"Маурицијус, летње време"}
            lg{"Маурицијус време"}
            ls{"Маурицијус, стандардно време"}
        }
        "meta:Mawson"{
            ls{"Мосон време"}
        }
        "meta:Mexico_Northwest"{
            ld{"Северозападни Мексико, летње време"}
            lg{"Северозападни Мексико"}
            ls{"Северозападни Мексико, стандардно време"}
        }
        "meta:Mexico_Pacific"{
            ld{"Мексички Пацифик, летње време"}
            lg{"Мексички Пацифик"}
            ls{"Мексички Пацифик, стандардно време"}
        }
        "meta:Mongolia"{
            ld{"Улан Батор, летње време"}
            lg{"Улан Батор време"}
            ls{"Улан Батор, стандардно време"}
        }
        "meta:Moscow"{
            ld{"Москва, летње време"}
            lg{"Москва време"}
            ls{"Москва, стандардно време"}
        }
        "meta:Myanmar"{
            ls{"Мијанмар време"}
        }
        "meta:Nauru"{
            ls{"Науру време"}
        }
        "meta:Nepal"{
            ls{"Непал време"}
        }
        "meta:New_Caledonia"{
            ld{"Нова Каледонија, летње време"}
            lg{"Нова Каледонија време"}
            ls{"Нова Каледонија, стандардно време"}
        }
        "meta:New_Zealand"{
            ld{"Нови Зеланд, летње време"}
            lg{"Нови Зеланд време"}
            ls{"Нови Зеланд, стандардно време"}
        }
        "meta:Newfoundland"{
            ld{"Њуфаундленд, летње време"}
            lg{"Њуфаундленд"}
            ls{"Њуфаундленд, стандардно време"}
        }
        "meta:Niue"{
            ls{"Ниуе време"}
        }
        "meta:Norfolk"{
            ls{"Норфолк Острво време"}
        }
        "meta:Noronha"{
            ld{"Фернандо де Нороња, летње време"}
            lg{"Фернандо де Нороња време"}
            ls{"Фернандо де Нороња, стандардно време"}
        }
        "meta:North_Mariana"{
            ls{"Северна Маријанска Острва време"}
        }
        "meta:Novosibirsk"{
            ld{"Новосибирск, летње време"}
            lg{"Новосибирск време"}
            ls{"Новосибирск, стандардно време"}
        }
        "meta:Omsk"{
            ld{"Омск, летње време"}
            lg{"Омск време"}
            ls{"Омск, стандардно време"}
        }
        "meta:Pakistan"{
            ld{"Пакистан, летње време"}
            lg{"Пакистан време"}
            ls{"Пакистан, стандардно време"}
        }
        "meta:Palau"{
            ls{"Палау време"}
        }
        "meta:Papua_New_Guinea"{
            ls{"Папуа Нова Гвинеја време"}
        }
        "meta:Paraguay"{
            ld{"Парагвај, летње време"}
            lg{"Парагвај време"}
            ls{"Парагвај, стандардно време"}
        }
        "meta:Peru"{
            ld{"Перу, летње време"}
            lg{"Перу време"}
            ls{"Перу, стандардно време"}
        }
        "meta:Philippines"{
            ld{"Филипини, летње време"}
            lg{"Филипини време"}
            ls{"Филипини, стандардно време"}
        }
        "meta:Phoenix_Islands"{
            ls{"Феникс острва време"}
        }
        "meta:Pierre_Miquelon"{
            ld{"Сен Пјер и Микелон, летње време"}
            lg{"Сен Пјер и Микелон"}
            ls{"Сен Пјер и Микелон, стандардно време"}
        }
        "meta:Pitcairn"{
            ls{"Питкерн време"}
        }
        "meta:Ponape"{
            ls{"Понпеј време"}
        }
        "meta:Pyongyang"{
            ls{"Пјонгјаншко време"}
        }
        "meta:Qyzylorda"{
            ld{"Кизилорда летње рачунање времена"}
            lg{"Кизилорда време"}
            ls{"Кизилорда стандардно време"}
        }
        "meta:Reunion"{
            ls{"Реинион време"}
        }
        "meta:Rothera"{
            ls{"Ротера време"}
        }
        "meta:Sakhalin"{
            ld{"Сахалин, летње време"}
            lg{"Сахалин време"}
            ls{"Сахалин, стандардно време"}
        }
        "meta:Samara"{
            ld{"Самара летње рачунање времена"}
            lg{"Самара време"}
            ls{"Самара стандардно време"}
        }
        "meta:Samoa"{
            ld{"Самоа, летње време"}
            lg{"Самоа време"}
            ls{"Самоа, стандардно време"}
        }
        "meta:Seychelles"{
            ls{"Сејшели време"}
        }
        "meta:Singapore"{
            ls{"Сингапур, стандардно време"}
        }
        "meta:Solomon"{
            ls{"Соломонска Острва време"}
        }
        "meta:South_Georgia"{
            ls{"Јужна Џорџија време"}
        }
        "meta:Suriname"{
            ls{"Суринам време"}
        }
        "meta:Syowa"{
            ls{"Шова време"}
        }
        "meta:Tahiti"{
            ls{"Тахити време"}
        }
        "meta:Taipei"{
            ld{"Тајпеј, летње време"}
            lg{"Тајпеј време"}
            ls{"Тајпеј, стандардно време"}
        }
        "meta:Tajikistan"{
            ls{"Таџикистан време"}
        }
        "meta:Tokelau"{
            ls{"Токелау време"}
        }
        "meta:Tonga"{
            ld{"Тонга, летње време"}
            lg{"Тонга време"}
            ls{"Тонга, стандардно време"}
        }
        "meta:Truk"{
            ls{"Чуук време"}
        }
        "meta:Turkmenistan"{
            ld{"Туркменистан, летње време"}
            lg{"Туркменистан време"}
            ls{"Туркменистан, стандардно време"}
        }
        "meta:Tuvalu"{
            ls{"Тувалу време"}
        }
        "meta:Uruguay"{
            ld{"Уругвај, летње време"}
            lg{"Уругвај време"}
            ls{"Уругвај, стандардно време"}
        }
        "meta:Uzbekistan"{
            ld{"Узбекистан, летње време"}
            lg{"Узбекистан време"}
            ls{"Узбекистан, стандардно време"}
        }
        "meta:Vanuatu"{
            ld{"Вануату, летње време"}
            lg{"Вануату време"}
            ls{"Вануату, стандардно време"}
        }
        "meta:Venezuela"{
            ls{"Венецуела време"}
        }
        "meta:Vladivostok"{
            ld{"Владивосток, летње време"}
            lg{"Владивосток време"}
            ls{"Владивосток, стандардно време"}
        }
        "meta:Volgograd"{
            ld{"Волгоград, летње време"}
            lg{"Волгоград време"}
            ls{"Волгоград, стандардно време"}
        }
        "meta:Vostok"{
            ls{"Восток време"}
        }
        "meta:Wake"{
            ls{"Вејк острво време"}
        }
        "meta:Wallis"{
            ls{"Валис и Футуна Острва време"}
        }
        "meta:Yakutsk"{
            ld{"Јакутск, летње време"}
            lg{"Јакутск време"}
            ls{"Јакутск, стандардно време"}
        }
        "meta:Yekaterinburg"{
            ld{"Јекатеринбург, летње време"}
            lg{"Јекатеринбург време"}
            ls{"Јекатеринбург, стандардно време"}
        }
        fallbackFormat{"{1} ({0})"}
        gmtFormat{"GMT{0}"}
        gmtZeroFormat{"GMT"}
        hourFormat{"+HH:mm;-HH:mm"}
        regionFormat{"{0}"}
        regionFormatDaylight{"{0}, летње време"}
        regionFormatStandard{"{0}, стандардно време"}
    }
}
