﻿// © 2016 and later: Unicode, Inc. and others.
// License & terms of use: http://www.unicode.org/copyright.html#License
sr_Latn{
    %%Parent{"root"}
    Version{"2.1.41.97"}
    zoneStrings{
        "Etc:UTC"{
            ls{"Koordinisano univerzalno vreme"}
        }
        "Europe:Dublin"{
            ld{"Irska, standardno vreme"}
        }
        "Europe:London"{
            ld{"Britanija, letnje vreme"}
        }
        "meta:Acre"{
            ld{"Akre letnje računanje vremena"}
            lg{"Akre vreme"}
            ls{"Akre standardno vreme"}
        }
        "meta:Afghanistan"{
            ls{"Avganistan vreme"}
        }
        "meta:Africa_Central"{
            ls{"Centralno-afričko vreme"}
        }
        "meta:Africa_Eastern"{
            ls{"Istočno-afričko vreme"}
        }
        "meta:Africa_Southern"{
            ls{"Južno-afričko vreme"}
        }
        "meta:Africa_Western"{
            ld{"Zapadno-afričko letnje vreme"}
            lg{"Zapadno-afričko vreme"}
            ls{"Zapadno-afričko standardno vreme"}
        }
        "meta:Alaska"{
            ld{"Aljaska, letnje vreme"}
            lg{"Aljaska"}
            ls{"Aljaska, standardno vreme"}
        }
        "meta:Almaty"{
            ld{"Almati letnje računanje vremena"}
            lg{"Almati vreme"}
            ls{"Almati standardno vreme"}
        }
        "meta:Amazon"{
            ld{"Amazon, letnje vreme"}
            lg{"Amazon vreme"}
            ls{"Amazon, standardno vreme"}
        }
        "meta:America_Central"{
            ld{"Severnoameričko centralno letnje vreme"}
            lg{"Severnoameričko centralno vreme"}
            ls{"Severnoameričko centralno standardno vreme"}
        }
        "meta:America_Eastern"{
            ld{"Severnoameričko istočno letnje vreme"}
            lg{"Severnoameričko istočno vreme"}
            ls{"Severnoameričko istočno standardno vreme"}
        }
        "meta:America_Mountain"{
            ld{"Severnoameričko planinsko letnje vreme"}
            lg{"Severnoameričko planinsko vreme"}
            ls{"Severnoameričko planinsko standardno vreme"}
        }
        "meta:America_Pacific"{
            ld{"Severnoameričko pacifičko letnje vreme"}
            lg{"Severnoameričko pacifičko vreme"}
            ls{"Severnoameričko pacifičko standardno vreme"}
        }
        "meta:Anadyr"{
            ld{"Anadir letnje računanje vremena"}
            lg{"Anadir vreme"}
            ls{"Anadir standardno vreme"}
        }
        "meta:Apia"{
            ld{"Apija, letnje vreme"}
            lg{"Apija vreme"}
            ls{"Apija, standardno vreme"}
        }
        "meta:Aqtau"{
            ld{"Akvatau letnje računanje vremena"}
            lg{"Akvatau vreme"}
            ls{"Akvatau standardno vreme"}
        }
        "meta:Aqtobe"{
            ld{"Akutobe letnje računanje vremena"}
            lg{"Akutobe vreme"}
            ls{"Akutobe standardno vreme"}
        }
        "meta:Arabian"{
            ld{"Arabijsko letnje vreme"}
            lg{"Arabijsko vreme"}
            ls{"Arabijsko standardno vreme"}
        }
        "meta:Argentina"{
            ld{"Argentina, letnje vreme"}
            lg{"Argentina vreme"}
            ls{"Argentina, standardno vreme"}
        }
        "meta:Argentina_Western"{
            ld{"Zapadna Argentina, letnje vreme"}
            lg{"Zapadna Argentina vreme"}
            ls{"Zapadna Argentina, standardno vreme"}
        }
        "meta:Armenia"{
            ld{"Jermenija, letnje vreme"}
            lg{"Jermenija vreme"}
            ls{"Jermenija, standardno vreme"}
        }
        "meta:Atlantic"{
            ld{"Atlantsko letnje vreme"}
            lg{"Atlantsko vreme"}
            ls{"Atlantsko standardno vreme"}
        }
        "meta:Australia_Central"{
            ld{"Australijsko centralno letnje vreme"}
            lg{"Australijsko centralno vreme"}
            ls{"Australijsko centralno standardno vreme"}
        }
        "meta:Australia_CentralWestern"{
            ld{"Australijsko centralno zapadno letnje vreme"}
            lg{"Australijsko centralno zapadno vreme"}
            ls{"Australijsko centralno zapadno standardno vreme"}
        }
        "meta:Australia_Eastern"{
            ld{"Australijsko istočno letnje vreme"}
            lg{"Australijsko istočno vreme"}
            ls{"Australijsko istočno standardno vreme"}
        }
        "meta:Australia_Western"{
            ld{"Australijsko zapadno letnje vreme"}
            lg{"Australijsko zapadno vreme"}
            ls{"Australijsko zapadno standardno vreme"}
        }
        "meta:Azerbaijan"{
            ld{"Azerbejdžan, letnje vreme"}
            lg{"Azerbejdžan vreme"}
            ls{"Azerbejdžan, standardno vreme"}
        }
        "meta:Azores"{
            ld{"Azori, letnje vreme"}
            lg{"Azori vreme"}
            ls{"Azori, standardno vreme"}
        }
        "meta:Bangladesh"{
            ld{"Bangladeš, letnje vreme"}
            lg{"Bangladeš vreme"}
            ls{"Bangladeš, standardno vreme"}
        }
        "meta:Bhutan"{
            ls{"Butan vreme"}
        }
        "meta:Bolivia"{
            ls{"Bolivija vreme"}
        }
        "meta:Brasilia"{
            ld{"Brazilija, letnje vreme"}
            lg{"Brazilija vreme"}
            ls{"Brazilija, standardno vreme"}
        }
        "meta:Brunei"{
            ls{"Brunej Darusalum vreme"}
        }
        "meta:Cape_Verde"{
            ld{"Zelenortska Ostrva, letnje vreme"}
            lg{"Zelenortska Ostrva vreme"}
            ls{"Zelenortska Ostrva, standardno vreme"}
        }
        "meta:Chamorro"{
            ls{"Čamoro vreme"}
        }
        "meta:Chatham"{
            ld{"Čatam, letnje vreme"}
            lg{"Čatam vreme"}
            ls{"Čatam, standardno vreme"}
        }
        "meta:Chile"{
            ld{"Čile, letnje vreme"}
            lg{"Čile vreme"}
            ls{"Čile, standardno vreme"}
        }
        "meta:China"{
            ld{"Kina, letnje vreme"}
            lg{"Kina vreme"}
            ls{"Kinesko standardno vreme"}
        }
        "meta:Choibalsan"{
            ld{"Čojbalsan, letnje vreme"}
            lg{"Čojbalsan vreme"}
            ls{"Čojbalsan, standardno vreme"}
        }
        "meta:Christmas"{
            ls{"Božićno ostrvo vreme"}
        }
        "meta:Cocos"{
            ls{"Kokos (Keling) Ostrva vreme"}
        }
        "meta:Colombia"{
            ld{"Kolumbija, letnje vreme"}
            lg{"Kolumbija vreme"}
            ls{"Kolumbija, standardno vreme"}
        }
        "meta:Cook"{
            ld{"Kukova ostrva, polu-letnje vreme"}
            lg{"Kukova ostrva vreme"}
            ls{"Kukova ostrva, standardno vreme"}
        }
        "meta:Cuba"{
            ld{"Kuba, letnje vreme"}
            lg{"Kuba"}
            ls{"Kuba, standardno vreme"}
        }
        "meta:Davis"{
            ls{"Dejvis vreme"}
        }
        "meta:DumontDUrville"{
            ls{"Dimon d’Urvil vreme"}
        }
        "meta:East_Timor"{
            ls{"Istočni timor vreme"}
        }
        "meta:Easter"{
            ld{"Uskršnja ostrva, letnje vreme"}
            lg{"Uskršnja ostrva vreme"}
            ls{"Uskršnja ostrva, standardno vreme"}
        }
        "meta:Ecuador"{
            ls{"Ekvador vreme"}
        }
        "meta:Europe_Central"{
            ld{"Srednjeevropsko letnje vreme"}
            lg{"Srednjeevropsko vreme"}
            ls{"Srednjeevropsko standardno vreme"}
            sd{"CEST"}
            sg{"CET"}
            ss{"CET"}
        }
        "meta:Europe_Eastern"{
            ld{"Istočnoevropsko letnje vreme"}
            lg{"Istočnoevropsko vreme"}
            ls{"Istočnoevropsko standardno vreme"}
            sd{"EEST"}
            sg{"EET"}
            ss{"EET"}
        }
        "meta:Europe_Further_Eastern"{
            ls{"Dalji istok Evrope"}
        }
        "meta:Europe_Western"{
            ld{"Zapadnoevropsko letnje vreme"}
            lg{"Zapadnoevropsko vreme"}
            ls{"Zapadnoevropsko standardno vreme"}
            sd{"WEST"}
            sg{"WET"}
            ss{"WET"}
        }
        "meta:Falkland"{
            ld{"Folklandska Ostrva, letnje vreme"}
            lg{"Folklandska Ostrva vreme"}
            ls{"Folklandska Ostrva, standardno vreme"}
        }
        "meta:Fiji"{
            ld{"Fidži, letnje vreme"}
            lg{"Fidži vreme"}
            ls{"Fidži, standardno vreme"}
        }
        "meta:French_Guiana"{
            ls{"Francuska Gvajana vreme"}
        }
        "meta:French_Southern"{
            ls{"Francusko južno i antarktičko vreme"}
        }
        "meta:GMT"{
            ls{"Srednje vreme po Griniču"}
            ss{"GMT"}
        }
        "meta:Galapagos"{
            ls{"Galapagos vreme"}
        }
        "meta:Gambier"{
            ls{"Gambije vreme"}
        }
        "meta:Georgia"{
            ld{"Gruzija, letnje vreme"}
            lg{"Gruzija vreme"}
            ls{"Gruzija, standardno vreme"}
        }
        "meta:Gilbert_Islands"{
            ls{"Gilbert ostrva vreme"}
        }
        "meta:Greenland_Eastern"{
            ld{"Istočni Grenland, letnje vreme"}
            lg{"Istočni Grenland"}
            ls{"Istočni Grenland, standardno vreme"}
        }
        "meta:Greenland_Western"{
            ld{"Zapadni Grenland, letnje vreme"}
            lg{"Zapadni Grenland"}
            ls{"Zapadni Grenland, standardno vreme"}
        }
        "meta:Guam"{
            ls{"Guam standardno vreme"}
        }
        "meta:Gulf"{
            ls{"Zalivsko vreme"}
        }
        "meta:Guyana"{
            ls{"Gvajana vreme"}
        }
        "meta:Hawaii_Aleutian"{
            ld{"Havajsko-aleutsko letnje vreme"}
            lg{"Havajsko-aleutsko vreme"}
            ls{"Havajsko-aleutsko standardno vreme"}
        }
        "meta:Hong_Kong"{
            ld{"Hong Kong, letnje vreme"}
            lg{"Hong Kong vreme"}
            ls{"Hong Kong, standardno vreme"}
        }
        "meta:Hovd"{
            ld{"Hovd, letnje vreme"}
            lg{"Hovd vreme"}
            ls{"Hovd, standardno vreme"}
        }
        "meta:India"{
            ls{"Indijsko standardno vreme"}
        }
        "meta:Indian_Ocean"{
            ls{"Indijsko okeansko vreme"}
        }
        "meta:Indochina"{
            ls{"Indokina vreme"}
        }
        "meta:Indonesia_Central"{
            ls{"Centralno-indonezijsko vreme"}
        }
        "meta:Indonesia_Eastern"{
            ls{"Istočno-indonezijsko vreme"}
        }
        "meta:Indonesia_Western"{
            ls{"Zapadno-indonezijsko vreme"}
        }
        "meta:Iran"{
            ld{"Iran, letnje vreme"}
            lg{"Iran vreme"}
            ls{"Iran, standardno vreme"}
        }
        "meta:Irkutsk"{
            ld{"Irkuck, letnje vreme"}
            lg{"Irkuck vreme"}
            ls{"Irkuck, standardno vreme"}
        }
        "meta:Israel"{
            ld{"Izraelsko letnje vreme"}
            lg{"Izraelsko vreme"}
            ls{"Izraelsko standardno vreme"}
        }
        "meta:Japan"{
            ld{"Japansko letnje vreme"}
            lg{"Japansko vreme"}
            ls{"Japansko standardno vreme"}
        }
        "meta:Kamchatka"{
            ld{"Petropavlovsko-kamčatsko letnje računanje vremena"}
            lg{"Petropavlovsko-kamčatsko vreme"}
            ls{"Petropavlovsko-kamčatsko standardno vreme"}
        }
        "meta:Kazakhstan_Eastern"{
            ls{"Istočno-kazahstansko vreme"}
        }
        "meta:Kazakhstan_Western"{
            ls{"Zapadno-kazahstansko vreme"}
        }
        "meta:Korea"{
            ld{"Korejsko letnje vreme"}
            lg{"Korejsko vreme"}
            ls{"Korejsko standardno vreme"}
        }
        "meta:Kosrae"{
            ls{"Košre vreme"}
        }
        "meta:Krasnoyarsk"{
            ld{"Krasnojarsk, letnje vreme"}
            lg{"Krasnojarsk vreme"}
            ls{"Krasnojarsk, standardno vreme"}
        }
        "meta:Kyrgystan"{
            ls{"Kirgistan vreme"}
        }
        "meta:Lanka"{
            ls{"Šri Lanka vreme"}
        }
        "meta:Line_Islands"{
            ls{"Ostrva Lajn vreme"}
        }
        "meta:Lord_Howe"{
            ld{"Lord Hov, letnje vreme"}
            lg{"Lord Hov vreme"}
            ls{"Lord Hov, standardno vreme"}
        }
        "meta:Macau"{
            ld{"Makao letnje računanje vremena"}
            lg{"Makao vreme"}
            ls{"Makao standardno vreme"}
        }
        "meta:Macquarie"{
            ls{"Ostrvo Makveri vreme"}
        }
        "meta:Magadan"{
            ld{"Magadan, letnje vreme"}
            lg{"Magadan vreme"}
            ls{"Magadan, standardno vreme"}
        }
        "meta:Malaysia"{
            ls{"Malezija vreme"}
        }
        "meta:Maldives"{
            ls{"Maldivi vreme"}
        }
        "meta:Marquesas"{
            ls{"Markiz vreme"}
        }
        "meta:Marshall_Islands"{
            ls{"Maršalska Ostrva vreme"}
        }
        "meta:Mauritius"{
            ld{"Mauricijus, letnje vreme"}
            lg{"Mauricijus vreme"}
            ls{"Mauricijus, standardno vreme"}
        }
        "meta:Mawson"{
            ls{"Moson vreme"}
        }
        "meta:Mexico_Northwest"{
            ld{"Severozapadni Meksiko, letnje vreme"}
            lg{"Severozapadni Meksiko"}
            ls{"Severozapadni Meksiko, standardno vreme"}
        }
        "meta:Mexico_Pacific"{
            ld{"Meksički Pacifik, letnje vreme"}
            lg{"Meksički Pacifik"}
            ls{"Meksički Pacifik, standardno vreme"}
        }
        "meta:Mongolia"{
            ld{"Ulan Bator, letnje vreme"}
            lg{"Ulan Bator vreme"}
            ls{"Ulan Bator, standardno vreme"}
        }
        "meta:Moscow"{
            ld{"Moskva, letnje vreme"}
            lg{"Moskva vreme"}
            ls{"Moskva, standardno vreme"}
        }
        "meta:Myanmar"{
            ls{"Mijanmar vreme"}
        }
        "meta:Nauru"{
            ls{"Nauru vreme"}
        }
        "meta:Nepal"{
            ls{"Nepal vreme"}
        }
        "meta:New_Caledonia"{
            ld{"Nova Kaledonija, letnje vreme"}
            lg{"Nova Kaledonija vreme"}
            ls{"Nova Kaledonija, standardno vreme"}
        }
        "meta:New_Zealand"{
            ld{"Novi Zeland, letnje vreme"}
            lg{"Novi Zeland vreme"}
            ls{"Novi Zeland, standardno vreme"}
        }
        "meta:Newfoundland"{
            ld{"Njufaundlend, letnje vreme"}
            lg{"Njufaundlend"}
            ls{"Njufaundlend, standardno vreme"}
        }
        "meta:Niue"{
            ls{"Niue vreme"}
        }
        "meta:Norfolk"{
            ls{"Norfolk Ostrvo vreme"}
        }
        "meta:Noronha"{
            ld{"Fernando de Noronja, letnje vreme"}
            lg{"Fernando de Noronja vreme"}
            ls{"Fernando de Noronja, standardno vreme"}
        }
        "meta:North_Mariana"{
            ls{"Severna Marijanska Ostrva vreme"}
        }
        "meta:Novosibirsk"{
            ld{"Novosibirsk, letnje vreme"}
            lg{"Novosibirsk vreme"}
            ls{"Novosibirsk, standardno vreme"}
        }
        "meta:Omsk"{
            ld{"Omsk, letnje vreme"}
            lg{"Omsk vreme"}
            ls{"Omsk, standardno vreme"}
        }
        "meta:Pakistan"{
            ld{"Pakistan, letnje vreme"}
            lg{"Pakistan vreme"}
            ls{"Pakistan, standardno vreme"}
        }
        "meta:Palau"{
            ls{"Palau vreme"}
        }
        "meta:Papua_New_Guinea"{
            ls{"Papua Nova Gvineja vreme"}
        }
        "meta:Paraguay"{
            ld{"Paragvaj, letnje vreme"}
            lg{"Paragvaj vreme"}
            ls{"Paragvaj, standardno vreme"}
        }
        "meta:Peru"{
            ld{"Peru, letnje vreme"}
            lg{"Peru vreme"}
            ls{"Peru, standardno vreme"}
        }
        "meta:Philippines"{
            ld{"Filipini, letnje vreme"}
            lg{"Filipini vreme"}
            ls{"Filipini, standardno vreme"}
        }
        "meta:Phoenix_Islands"{
            ls{"Feniks ostrva vreme"}
        }
        "meta:Pierre_Miquelon"{
            ld{"Sen Pjer i Mikelon, letnje vreme"}
            lg{"Sen Pjer i Mikelon"}
            ls{"Sen Pjer i Mikelon, standardno vreme"}
        }
        "meta:Pitcairn"{
            ls{"Pitkern vreme"}
        }
        "meta:Ponape"{
            ls{"Ponpej vreme"}
        }
        "meta:Pyongyang"{
            ls{"Pjongjanško vreme"}
        }
        "meta:Qyzylorda"{
            ld{"Kizilorda letnje računanje vremena"}
            lg{"Kizilorda vreme"}
            ls{"Kizilorda standardno vreme"}
        }
        "meta:Reunion"{
            ls{"Reinion vreme"}
        }
        "meta:Rothera"{
            ls{"Rotera vreme"}
        }
        "meta:Sakhalin"{
            ld{"Sahalin, letnje vreme"}
            lg{"Sahalin vreme"}
            ls{"Sahalin, standardno vreme"}
        }
        "meta:Samara"{
            ld{"Samara letnje računanje vremena"}
            lg{"Samara vreme"}
            ls{"Samara standardno vreme"}
        }
        "meta:Samoa"{
            ld{"Samoa, letnje vreme"}
            lg{"Samoa vreme"}
            ls{"Samoa, standardno vreme"}
        }
        "meta:Seychelles"{
            ls{"Sejšeli vreme"}
        }
        "meta:Singapore"{
            ls{"Singapur, standardno vreme"}
        }
        "meta:Solomon"{
            ls{"Solomonska Ostrva vreme"}
        }
        "meta:South_Georgia"{
            ls{"Južna Džordžija vreme"}
        }
        "meta:Suriname"{
            ls{"Surinam vreme"}
        }
        "meta:Syowa"{
            ls{"Šova vreme"}
        }
        "meta:Tahiti"{
            ls{"Tahiti vreme"}
        }
        "meta:Taipei"{
            ld{"Tajpej, letnje vreme"}
            lg{"Tajpej vreme"}
            ls{"Tajpej, standardno vreme"}
        }
        "meta:Tajikistan"{
            ls{"Tadžikistan vreme"}
        }
        "meta:Tokelau"{
            ls{"Tokelau vreme"}
        }
        "meta:Tonga"{
            ld{"Tonga, letnje vreme"}
            lg{"Tonga vreme"}
            ls{"Tonga, standardno vreme"}
        }
        "meta:Truk"{
            ls{"Čuuk vreme"}
        }
        "meta:Turkmenistan"{
            ld{"Turkmenistan, letnje vreme"}
            lg{"Turkmenistan vreme"}
            ls{"Turkmenistan, standardno vreme"}
        }
        "meta:Tuvalu"{
            ls{"Tuvalu vreme"}
        }
        "meta:Uruguay"{
            ld{"Urugvaj, letnje vreme"}
            lg{"Urugvaj vreme"}
            ls{"Urugvaj, standardno vreme"}
        }
        "meta:Uzbekistan"{
            ld{"Uzbekistan, letnje vreme"}
            lg{"Uzbekistan vreme"}
            ls{"Uzbekistan, standardno vreme"}
        }
        "meta:Vanuatu"{
            ld{"Vanuatu, letnje vreme"}
            lg{"Vanuatu vreme"}
            ls{"Vanuatu, standardno vreme"}
        }
        "meta:Venezuela"{
            ls{"Venecuela vreme"}
        }
        "meta:Vladivostok"{
            ld{"Vladivostok, letnje vreme"}
            lg{"Vladivostok vreme"}
            ls{"Vladivostok, standardno vreme"}
        }
        "meta:Volgograd"{
            ld{"Volgograd, letnje vreme"}
            lg{"Volgograd vreme"}
            ls{"Volgograd, standardno vreme"}
        }
        "meta:Vostok"{
            ls{"Vostok vreme"}
        }
        "meta:Wake"{
            ls{"Vejk ostrvo vreme"}
        }
        "meta:Wallis"{
            ls{"Valis i Futuna Ostrva vreme"}
        }
        "meta:Yakutsk"{
            ld{"Jakutsk, letnje vreme"}
            lg{"Jakutsk vreme"}
            ls{"Jakutsk, standardno vreme"}
        }
        "meta:Yekaterinburg"{
            ld{"Jekaterinburg, letnje vreme"}
            lg{"Jekaterinburg vreme"}
            ls{"Jekaterinburg, standardno vreme"}
        }
        fallbackFormat{"{1} ({0})"}
        gmtFormat{"GMT{0}"}
        gmtZeroFormat{"GMT"}
        hourFormat{"+HH:mm;-HH:mm"}
        regionFormat{"{0}"}
        regionFormatDaylight{"{0}, letnje vreme"}
        regionFormatStandard{"{0}, standardno vreme"}
    }
}
