﻿// © 2016 and later: Unicode, Inc. and others.
// License & terms of use: http://www.unicode.org/copyright.html#License
uz{
    Version{"2.1.41.97"}
    zoneStrings{
        "Etc:UTC"{
            ls{"Koordinatali universal vaqt"}
        }
        "Europe:Dublin"{
            ld{"Irlandiya yozgi vaqti"}
        }
        "Europe:London"{
            ld{"Britaniya yozgi vaqti"}
        }
        "meta:Afghanistan"{
            ls{"Afgʻoniston vaqti"}
        }
        "meta:Africa_Central"{
            ls{"Markaziy Afrika vaqti"}
        }
        "meta:Africa_Eastern"{
            ls{"Sharqiy Afrika vaqti"}
        }
        "meta:Africa_Southern"{
            ls{"Janubiy Afrika standart vaqti"}
        }
        "meta:Africa_Western"{
            ld{"Gʻarbiy Afrika yozgi vaqti"}
            lg{"Gʻarbiy Afrika vaqti"}
            ls{"Gʻarbiy Afrika standart vaqti"}
        }
        "meta:Alaska"{
            ld{"Alyaska yozgi vaqti"}
            lg{"Alyaska vaqti"}
            ls{"Alyaska standart vaqti"}
        }
        "meta:Amazon"{
            ld{"Amazonka yozgi vaqti"}
            lg{"Amazonka vaqti"}
            ls{"Amazonka standart vaqti"}
        }
        "meta:America_Central"{
            ld{"Markaziy Amerika yozgi vaqti"}
            lg{"Markaziy Amerika vaqti"}
            ls{"Markaziy Amerika standart vaqti"}
        }
        "meta:America_Eastern"{
            ld{"Sharqiy Amerika yozgi vaqti"}
            lg{"Sharqiy Amerika vaqti"}
            ls{"Sharqiy Amerika standart vaqti"}
        }
        "meta:America_Mountain"{
            ld{"Tog‘ yozgi vaqti (AQSH)"}
            lg{"Tog‘ vaqti (AQSH)"}
            ls{"Tog‘ standart vaqti (AQSH)"}
        }
        "meta:America_Pacific"{
            ld{"Tinch okeani yozgi vaqti"}
            lg{"Tinch okeani vaqti"}
            ls{"Tinch okeani standart vaqti"}
        }
        "meta:Apia"{
            ld{"Apia yozgi vaqti"}
            lg{"Apia vaqti"}
            ls{"Apia standart vaqti"}
        }
        "meta:Arabian"{
            ld{"Saudiya Arabistoni yozgi vaqti"}
            lg{"Saudiya Arabistoni vaqti"}
            ls{"Saudiya Arabistoni standart vaqti"}
        }
        "meta:Argentina"{
            ld{"Argentina yozgi vaqti"}
            lg{"Argentina vaqti"}
            ls{"Argentina standart vaqti"}
        }
        "meta:Argentina_Western"{
            ld{"Gʻarbiy Argentina yozgi vaqti"}
            lg{"Gʻarbiy Argentina vaqti"}
            ls{"Gʻarbiy Argentina standart vaqti"}
        }
        "meta:Armenia"{
            ld{"Armaniston yozgi vaqti"}
            lg{"Armaniston vaqti"}
            ls{"Armaniston standart vaqti"}
        }
        "meta:Atlantic"{
            ld{"Atlantika yozgi vaqti"}
            lg{"Atlantika vaqti"}
            ls{"Atlantika standart vaqti"}
        }
        "meta:Australia_Central"{
            ld{"Markaziy Avstraliya yozgi vaqti"}
            lg{"Markaziy Avstraliya vaqti"}
            ls{"Markaziy Avstraliya standart vaqti"}
        }
        "meta:Australia_CentralWestern"{
            ld{"Markaziy Avstraliya g‘arbiy yozgi vaqti"}
            lg{"Markaziy Avstraliya g‘arbiy vaqti"}
            ls{"Markaziy Avstraliya g‘arbiy standart vaqti"}
        }
        "meta:Australia_Eastern"{
            ld{"Sharqiy Avstraliya yozgi vaqti"}
            lg{"Sharqiy Avstraliya vaqti"}
            ls{"Sharqiy Avstraliya standart vaqti"}
        }
        "meta:Australia_Western"{
            ld{"G‘arbiy Avstraliya yozgi vaqti"}
            lg{"G‘arbiy Avstraliya vaqti"}
            ls{"G‘arbiy Avstraliya standart vaqti"}
        }
        "meta:Azerbaijan"{
            ld{"Ozarbayjon yozgi vaqti"}
            lg{"Ozarbayjon vaqti"}
            ls{"Ozarbayjon standart vaqti"}
        }
        "meta:Azores"{
            ld{"Azor orollari yozgi vaqti"}
            lg{"Azor orollari vaqti"}
            ls{"Azor orollari standart vaqti"}
        }
        "meta:Bangladesh"{
            ld{"Bangladesh yozgi vaqti"}
            lg{"Bangladesh vaqti"}
            ls{"Bangladesh standart vaqti"}
        }
        "meta:Bhutan"{
            ls{"Butan vaqti"}
        }
        "meta:Bolivia"{
            ls{"Boliviya vaqti"}
        }
        "meta:Brasilia"{
            ld{"Braziliya yozgi vaqti"}
            lg{"Braziliya vaqti"}
            ls{"Braziliya standart vaqti"}
        }
        "meta:Brunei"{
            ls{"Bruney-Dorussalom vaqti"}
        }
        "meta:Cape_Verde"{
            ld{"Kabo-Verde yozgi vaqti"}
            lg{"Kabo-Verde vaqti"}
            ls{"Kabo-Verde standart vaqti"}
        }
        "meta:Chamorro"{
            ls{"Chamorro standart vaqti"}
        }
        "meta:Chatham"{
            ld{"Chatem yozgi vaqti"}
            lg{"Chatem vaqti"}
            ls{"Chatem standart vaqti"}
        }
        "meta:Chile"{
            ld{"Chili yozgi vaqti"}
            lg{"Chili vaqti"}
            ls{"Chili standart vaqti"}
        }
        "meta:China"{
            ld{"Xitoy yozgi vaqti"}
            lg{"Xitoy vaqti"}
            ls{"Xitoy standart vaqti"}
        }
        "meta:Choibalsan"{
            ld{"Choybalsan yozgi vaqti"}
            lg{"Choybalsan vaqti"}
            ls{"Choybalsan standart vaqti"}
        }
        "meta:Christmas"{
            ls{"Rojdestvo oroli vaqti"}
        }
        "meta:Cocos"{
            ls{"Kokos orollari vaqti"}
        }
        "meta:Colombia"{
            ld{"Kolumbiya yozgi vaqti"}
            lg{"Kolumbiya vaqti"}
            ls{"Kolumbiya standart vaqti"}
        }
        "meta:Cook"{
            ld{"Kuk orollari yarim yozgi vaqti"}
            lg{"Kuk orollari vaqti"}
            ls{"Kuk orollari standart vaqti"}
        }
        "meta:Cuba"{
            ld{"Kuba yozgi vaqti"}
            lg{"Kuba vaqti"}
            ls{"Kuba standart vaqti"}
        }
        "meta:Davis"{
            ls{"Deyvis vaqti"}
        }
        "meta:DumontDUrville"{
            ls{"Dyumon-d’Yurvil vaqti"}
        }
        "meta:East_Timor"{
            ls{"Sharqiy Timor vaqti"}
        }
        "meta:Easter"{
            ld{"Pasxa oroli yozgi vaqti"}
            lg{"Pasxa oroli vaqti"}
            ls{"Pasxa oroli standart vaqti"}
        }
        "meta:Ecuador"{
            ls{"Ekvador vaqti"}
        }
        "meta:Europe_Central"{
            ld{"Markaziy Yevropa yozgi vaqti"}
            lg{"Markaziy Yevropa vaqti"}
            ls{"Markaziy Yevropa standart vaqti"}
        }
        "meta:Europe_Eastern"{
            ld{"Sharqiy Yevropa yozgi vaqti"}
            lg{"Sharqiy Yevropa vaqti"}
            ls{"Sharqiy Yevropa standart vaqti"}
        }
        "meta:Europe_Further_Eastern"{
            ls{"Kaliningrad va Minsk vaqti"}
        }
        "meta:Europe_Western"{
            ld{"G‘arbiy Yevropa yozgi vaqti"}
            lg{"G‘arbiy Yevropa vaqti"}
            ls{"G‘arbiy Yevropa standart vaqti"}
        }
        "meta:Falkland"{
            ld{"Folklend orollari yozgi vaqti"}
            lg{"Folklend orollari vaqti"}
            ls{"Folklend orollari standart vaqti"}
        }
        "meta:Fiji"{
            ld{"Fiji yozgi vaqti"}
            lg{"Fiji vaqti"}
            ls{"Fiji standart vaqti"}
        }
        "meta:French_Guiana"{
            ls{"Fransuz Gvianasi vaqti"}
        }
        "meta:French_Southern"{
            ls{"Fransuz Janubiy hududlari va Antarktika vaqti"}
        }
        "meta:GMT"{
            ls{"Grinvich o‘rtacha vaqti"}
        }
        "meta:Galapagos"{
            ls{"Galapagos vaqti"}
        }
        "meta:Gambier"{
            ls{"Gambye vaqti"}
        }
        "meta:Georgia"{
            ld{"Gruziya yozgi vaqti"}
            lg{"Gruziya vaqti"}
            ls{"Gruziya standart vaqti"}
        }
        "meta:Gilbert_Islands"{
            ls{"Gilbert orollari vaqti"}
        }
        "meta:Greenland_Eastern"{
            ld{"Sharqiy Grenlandiya yozgi vaqti"}
            lg{"Sharqiy Grenlandiya vaqti"}
            ls{"Sharqiy Grenlandiya standart vaqti"}
        }
        "meta:Greenland_Western"{
            ld{"G‘arbiy Grenlandiya yozgi vaqti"}
            lg{"G‘arbiy Grenlandiya vaqti"}
            ls{"G‘arbiy Grenlandiya standart vaqti"}
        }
        "meta:Gulf"{
            ls{"Fors ko‘rfazi standart vaqti"}
        }
        "meta:Guyana"{
            ls{"Gayana vaqti"}
        }
        "meta:Hawaii_Aleutian"{
            ld{"Gavayi-aleut yozgi vaqti"}
            lg{"Gavayi-aleut vaqti"}
            ls{"Gavayi-aleut standart vaqti"}
        }
        "meta:Hong_Kong"{
            ld{"Gonkong yozgi vaqti"}
            lg{"Gonkong vaqti"}
            ls{"Gonkong standart vaqti"}
        }
        "meta:Hovd"{
            ld{"Xovd yozgi vaqti"}
            lg{"Xovd vaqti"}
            ls{"Xovd standart vaqti"}
        }
        "meta:India"{
            ls{"Hindiston standart vaqti"}
        }
        "meta:Indian_Ocean"{
            ls{"Hind okeani vaqti"}
        }
        "meta:Indochina"{
            ls{"Hindixitoy vaqti"}
        }
        "meta:Indonesia_Central"{
            ls{"Markaziy Indoneziya vaqti"}
        }
        "meta:Indonesia_Eastern"{
            ls{"Sharqiy Indoneziya vaqti"}
        }
        "meta:Indonesia_Western"{
            ls{"Gʻarbiy Indoneziya vaqti"}
        }
        "meta:Iran"{
            ld{"Eron yozgi vaqti"}
            lg{"Eron vaqti"}
            ls{"Eron standart vaqti"}
        }
        "meta:Irkutsk"{
            ld{"Irkutsk yozgi vaqti"}
            lg{"Irkutsk vaqti"}
            ls{"Irkutsk standart vaqti"}
        }
        "meta:Israel"{
            ld{"Isroil yozgi vaqti"}
            lg{"Isroil vaqti"}
            ls{"Isroil standart vaqti"}
        }
        "meta:Japan"{
            ld{"Yaponiya yozgi vaqti"}
            lg{"Yaponiya vaqti"}
            ls{"Yaponiya standart vaqti"}
        }
        "meta:Kazakhstan_Eastern"{
            ls{"Sharqiy Qozogʻiston vaqti"}
        }
        "meta:Kazakhstan_Western"{
            ls{"Gʻarbiy Qozogʻiston vaqti"}
        }
        "meta:Korea"{
            ld{"Koreya yozgi vaqti"}
            lg{"Koreya vaqti"}
            ls{"Koreya standart vaqti"}
        }
        "meta:Kosrae"{
            ls{"Kosrae vaqti"}
        }
        "meta:Krasnoyarsk"{
            ld{"Krasnoyarsk yozgi vaqti"}
            lg{"Krasnoyarsk vaqti"}
            ls{"Krasnoyarsk standart vaqti"}
        }
        "meta:Kyrgystan"{
            ls{"Qirgʻiziston vaqti"}
        }
        "meta:Line_Islands"{
            ls{"Layn orollari vaqti"}
        }
        "meta:Lord_Howe"{
            ld{"Lord-Xau yozgi vaqti"}
            lg{"Lord-Xau vaqti"}
            ls{"Lord-Xau standart vaqti"}
        }
        "meta:Macquarie"{
            ls{"Makkuori oroli vaqti"}
        }
        "meta:Magadan"{
            ld{"Magadan yozgi vaqti"}
            lg{"Magadan vaqti"}
            ls{"Magadan standart vaqti"}
        }
        "meta:Malaysia"{
            ls{"Malayziya vaqti"}
        }
        "meta:Maldives"{
            ls{"Maldiv orollari vaqti"}
        }
        "meta:Marquesas"{
            ls{"Markiz orollari vaqti"}
        }
        "meta:Marshall_Islands"{
            ls{"Marshall orollari vaqti"}
        }
        "meta:Mauritius"{
            ld{"Mavrikiy yozgi vaqti"}
            lg{"Mavrikiy vaqti"}
            ls{"Mavrikiy standart vaqti"}
        }
        "meta:Mawson"{
            ls{"Mouson vaqti"}
        }
        "meta:Mexico_Northwest"{
            ld{"Shimoli-g‘arbiy Meksika yozgi vaqti"}
            lg{"Shimoli-g‘arbiy Meksika vaqti"}
            ls{"Shimoli-g‘arbiy Meksika standart vaqti"}
        }
        "meta:Mexico_Pacific"{
            ld{"Meksika Tinch okeani yozgi vaqti"}
            lg{"Meksika Tinch okeani vaqti"}
            ls{"Meksika Tinch okeani standart vaqti"}
        }
        "meta:Mongolia"{
            ld{"Ulan-Bator yozgi vaqti"}
            lg{"Ulan-Bator vaqti"}
            ls{"Ulan-Bator standart vaqti"}
        }
        "meta:Moscow"{
            ld{"Moskva yozgi vaqti"}
            lg{"Moskva vaqti"}
            ls{"Moskva standart vaqti"}
        }
        "meta:Myanmar"{
            ls{"Myanma vaqti"}
        }
        "meta:Nauru"{
            ls{"Nauru vaqti"}
        }
        "meta:Nepal"{
            ls{"Nepal vaqti"}
        }
        "meta:New_Caledonia"{
            ld{"Yangi Kaledoniya yozgi vaqti"}
            lg{"Yangi Kaledoniya vaqti"}
            ls{"Yangi Kaledoniya standart vaqti"}
        }
        "meta:New_Zealand"{
            ld{"Yangi Zelandiya yozgi vaqti"}
            lg{"Yangi Zelandiya vaqti"}
            ls{"Yangi Zelandiya standart vaqti"}
        }
        "meta:Newfoundland"{
            ld{"Nyufaundlend yozgi vaqti"}
            lg{"Nyufaundlend vaqti"}
            ls{"Nyufaundlend standart vaqti"}
        }
        "meta:Niue"{
            ls{"Niuye vaqti"}
        }
        "meta:Norfolk"{
            ls{"Norfolk oroli vaqti"}
        }
        "meta:Noronha"{
            ld{"Fernandu-di-Noronya yozgi vaqti"}
            lg{"Fernandu-di-Noronya vaqti"}
            ls{"Fernandu-di-Noronya standart vaqti"}
        }
        "meta:Novosibirsk"{
            ld{"Novosibirsk yozgi vaqti"}
            lg{"Novosibirsk vaqti"}
            ls{"Novosibirsk standart vaqti"}
        }
        "meta:Omsk"{
            ld{"Omsk yozgi vaqti"}
            lg{"Omsk vaqti"}
            ls{"Omsk standart vaqti"}
        }
        "meta:Pakistan"{
            ld{"Pokiston yozgi vaqti"}
            lg{"Pokiston vaqti"}
            ls{"Pokiston standart vaqti"}
        }
        "meta:Palau"{
            ls{"Palau vaqti"}
        }
        "meta:Papua_New_Guinea"{
            ls{"Papua-Yangi Gvineya vaqti"}
        }
        "meta:Paraguay"{
            ld{"Paragvay yozgi vaqti"}
            lg{"Paragvay vaqti"}
            ls{"Paragvay standart vaqti"}
        }
        "meta:Peru"{
            ld{"Peru yozgi vaqti"}
            lg{"Peru vaqti"}
            ls{"Peru standart vaqti"}
        }
        "meta:Philippines"{
            ld{"Filippin yozgi vaqti"}
            lg{"Filippin vaqti"}
            ls{"Filippin standart vaqti"}
        }
        "meta:Phoenix_Islands"{
            ls{"Feniks orollari vaqti"}
        }
        "meta:Pierre_Miquelon"{
            ld{"Sen-Pyer va Mikelon yozgi vaqti"}
            lg{"Sen-Pyer va Mikelon vaqti"}
            ls{"Sen-Pyer va Mikelon standart vaqti"}
        }
        "meta:Pitcairn"{
            ls{"Pitkern vaqti"}
        }
        "meta:Ponape"{
            ls{"Ponape vaqti"}
        }
        "meta:Pyongyang"{
            ls{"Pxenyan vaqti"}
        }
        "meta:Reunion"{
            ls{"Reyunion vaqti"}
        }
        "meta:Rothera"{
            ls{"Rotera vaqti"}
        }
        "meta:Sakhalin"{
            ld{"Saxalin yozgi vaqti"}
            lg{"Saxalin vaqti"}
            ls{"Saxalin standart vaqti"}
        }
        "meta:Samoa"{
            ld{"Samoa yozgi vaqti"}
            lg{"Samoa vaqti"}
            ls{"Samoa standart vaqti"}
        }
        "meta:Seychelles"{
            ls{"Seyshel orollari vaqti"}
        }
        "meta:Singapore"{
            ls{"Singapur vaqti"}
        }
        "meta:Solomon"{
            ls{"Solomon orollari vaqti"}
        }
        "meta:South_Georgia"{
            ls{"Janubiy Georgiya vaqti"}
        }
        "meta:Suriname"{
            ls{"Surinam vaqti"}
        }
        "meta:Syowa"{
            ls{"Syova vaqti"}
        }
        "meta:Tahiti"{
            ls{"Taiti vaqti"}
        }
        "meta:Taipei"{
            ld{"Tayvan yozgi vaqti"}
            lg{"Tayvan vaqti"}
            ls{"Tayvan standart vaqti"}
        }
        "meta:Tajikistan"{
            ls{"Tojikiston vaqti"}
        }
        "meta:Tokelau"{
            ls{"Tokelau vaqti"}
        }
        "meta:Tonga"{
            ld{"Tonga yozgi vaqti"}
            lg{"Tonga vaqti"}
            ls{"Tonga standart vaqti"}
        }
        "meta:Truk"{
            ls{"Chuuk vaqti"}
        }
        "meta:Turkmenistan"{
            ld{"Turkmaniston yozgi vaqti"}
            lg{"Turkmaniston vaqti"}
            ls{"Turkmaniston standart vaqti"}
        }
        "meta:Tuvalu"{
            ls{"Tuvalu vaqti"}
        }
        "meta:Uruguay"{
            ld{"Urugvay yozgi vaqti"}
            lg{"Urugvay vaqti"}
            ls{"Urugvay standart vaqti"}
        }
        "meta:Uzbekistan"{
            ld{"O‘zbekiston yozgi vaqti"}
            lg{"O‘zbekiston vaqti"}
            ls{"O‘zbekiston standart vaqti"}
        }
        "meta:Vanuatu"{
            ld{"Vanuatu yozgi vaqti"}
            lg{"Vanuatu vaqti"}
            ls{"Vanuatu standart vaqti"}
        }
        "meta:Venezuela"{
            ls{"Venesuela vaqti"}
        }
        "meta:Vladivostok"{
            ld{"Vladivostok yozgi vaqti"}
            lg{"Vladivostok vaqti"}
            ls{"Vladivostok standart vaqti"}
        }
        "meta:Volgograd"{
            ld{"Volgograd yozgi vaqti"}
            lg{"Volgograd vaqti"}
            ls{"Volgograd standart vaqti"}
        }
        "meta:Vostok"{
            ls{"Vostok vaqti"}
        }
        "meta:Wake"{
            ls{"Ueyk oroli vaqti"}
        }
        "meta:Wallis"{
            ls{"Uollis va Futuna vaqti"}
        }
        "meta:Yakutsk"{
            ld{"Yakutsk yozgi vaqti"}
            lg{"Yakutsk vaqti"}
            ls{"Yakutsk standart vaqti"}
        }
        "meta:Yekaterinburg"{
            ld{"Yekaterinburg yozgi vaqti"}
            lg{"Yekaterinburg vaqti"}
            ls{"Yekaterinburg standart vaqti"}
        }
        fallbackFormat{"{1} ({0})"}
        gmtFormat{"GMT{0}"}
        gmtZeroFormat{"GMT"}
        hourFormat{"+HH:mm;-HH:mm"}
        regionFormat{"{0}"}
        regionFormatDaylight{"{0} (+1)"}
        regionFormatStandard{"{0} (+0)"}
    }
}
